<?xml version="1.0" encoding="UTF-8" standalone="no"?>
<!-- Created with Inkscape (http://www.inkscape.org/) -->
<svg
   xmlns:dc="http://purl.org/dc/elements/1.1/"
   xmlns:cc="http://web.resource.org/cc/"
   xmlns:rdf="http://www.w3.org/1999/02/22-rdf-syntax-ns#"
   xmlns:svg="http://www.w3.org/2000/svg"
   xmlns="http://www.w3.org/2000/svg"
   xmlns:xlink="http://www.w3.org/1999/xlink"
   xmlns:sodipodi="http://sodipodi.sourceforge.net/DTD/sodipodi-0.dtd"
   xmlns:inkscape="http://www.inkscape.org/namespaces/inkscape"
   width="100"
   height="100"
   id="svg2"
   sodipodi:version="0.32"
   inkscape:version="0.45.1"
   sodipodi:docbase="/home/bruno/Desktop"
   sodipodi:docname="garfunkel-gnome.svg"
   inkscape:output_extension="org.inkscape.output.svg.inkscape"
   version="1.0">
  <defs
     id="defs4">
    <linearGradient
       id="linearGradient3332">
      <stop
         style="stop-color:#464646;stop-opacity:1;"
         offset="0"
         id="stop3334" />
      <stop
         style="stop-color:#1e1e1e;stop-opacity:1;"
         offset="1"
         id="stop3336" />
    </linearGradient>
    <linearGradient
       id="linearGradient2330">
      <stop
         style="stop-color:#ffffff;stop-opacity:1;"
         offset="0"
         id="stop2332" />
      <stop
         style="stop-color:#204a87;stop-opacity:0;"
         offset="1"
         id="stop2334" />
    </linearGradient>
    <linearGradient
       id="linearGradient2315">
      <stop
         style="stop-color:#000000;stop-opacity:0;"
         offset="0"
         id="stop2317" />
      <stop
         style="stop-color:#555753;stop-opacity:0"
         offset="1"
         id="stop2319" />
    </linearGradient>
    <linearGradient
       id="linearGradient2319">
      <stop
         style="stop-color:#3c3c3c;stop-opacity:1;"
         offset="0"
         id="stop2321" />
      <stop
         style="stop-color:#2e3436;stop-opacity:0;"
         offset="1"
         id="stop2323" />
    </linearGradient>
    <linearGradient
       id="linearGradient8647">
      <stop
         id="stop8649"
         offset="0"
         style="stop-color:#8fb1dc;stop-opacity:1;" />
      <stop
         id="stop8651"
         offset="1"
         style="stop-color:#3465a4;stop-opacity:1;" />
    </linearGradient>
    <radialGradient
       r="10.081216"
       fy="-3.4420195"
       fx="62.225391"
       cy="-3.4420195"
       cx="62.225391"
       gradientTransform="matrix(1,0,0,0.930233,0,-0.240141)"
       gradientUnits="userSpaceOnUse"
       id="radialGradient8748"
       xlink:href="#linearGradient8740"
       inkscape:collect="always" />
    <linearGradient
       id="linearGradient8740"
       inkscape:collect="always">
      <stop
         id="stop8742"
         offset="0"
         style="stop-color:#ffffff;stop-opacity:1;" />
      <stop
         id="stop8744"
         offset="1"
         style="stop-color:#ffffff;stop-opacity:0;" />
    </linearGradient>
    <radialGradient
       r="10.081216"
       fy="-3.4420195"
       fx="62.225391"
       cy="-3.4420195"
       cx="62.225391"
       gradientTransform="matrix(1,0,0,0.930233,0,-0.240141)"
       gradientUnits="userSpaceOnUse"
       id="radialGradient8750"
       xlink:href="#linearGradient8740"
       inkscape:collect="always" />
    <radialGradient
       r="10.081216"
       fy="-3.4420195"
       fx="62.225391"
       cy="-3.4420195"
       cx="62.225391"
       gradientTransform="matrix(1,0,0,0.930233,0,-0.240141)"
       gradientUnits="userSpaceOnUse"
       id="radialGradient8752"
       xlink:href="#linearGradient8740"
       inkscape:collect="always" />
    <radialGradient
       r="10.081216"
       fy="-3.4420195"
       fx="62.225391"
       cy="-3.4420195"
       cx="62.225391"
       gradientTransform="matrix(1,0,0,0.930233,0,-0.240141)"
       gradientUnits="userSpaceOnUse"
       id="radialGradient8756"
       xlink:href="#linearGradient8740"
       inkscape:collect="always" />
    <radialGradient
       r="10.081216"
       fy="-3.4420195"
       fx="62.225391"
       cy="-3.4420195"
       cx="62.225391"
       gradientTransform="matrix(1,0,0,0.930233,0,-0.240141)"
       gradientUnits="userSpaceOnUse"
       id="radialGradient8758"
       xlink:href="#linearGradient8740"
       inkscape:collect="always" />
    <radialGradient
       r="10.081216"
       fy="-3.4420195"
       fx="62.225391"
       cy="-3.4420195"
       cx="62.225391"
       gradientTransform="matrix(1,0,0,0.930233,0,-0.240141)"
       gradientUnits="userSpaceOnUse"
       id="radialGradient8760"
       xlink:href="#linearGradient8740"
       inkscape:collect="always" />
    <radialGradient
       r="10.081216"
       fy="-3.4420195"
       fx="62.225391"
       cy="-3.4420195"
       cx="62.225391"
       gradientTransform="matrix(1,0,0,0.930233,0,-0.240141)"
       gradientUnits="userSpaceOnUse"
       id="radialGradient8764"
       xlink:href="#linearGradient8740"
       inkscape:collect="always" />
    <radialGradient
       r="10.081216"
       fy="-3.4420195"
       fx="62.225391"
       cy="-3.4420195"
       cx="62.225391"
       gradientTransform="matrix(1,0,0,0.930233,0,-0.240141)"
       gradientUnits="userSpaceOnUse"
       id="radialGradient8766"
       xlink:href="#linearGradient8740"
       inkscape:collect="always" />
    <radialGradient
       r="10.081216"
       fy="-3.4420195"
       fx="62.225391"
       cy="-3.4420195"
       cx="62.225391"
       gradientTransform="matrix(1,0,0,0.930233,0,-0.240141)"
       gradientUnits="userSpaceOnUse"
       id="radialGradient8770"
       xlink:href="#linearGradient8740"
       inkscape:collect="always" />
    <radialGradient
       r="10.081216"
       fy="-3.4420195"
       fx="62.225391"
       cy="-3.4420195"
       cx="62.225391"
       gradientTransform="matrix(1,0,0,0.930233,0,-0.240141)"
       gradientUnits="userSpaceOnUse"
       id="radialGradient8772"
       xlink:href="#linearGradient8740"
       inkscape:collect="always" />
    <radialGradient
       r="10.081216"
       fy="-3.4420195"
       fx="62.225391"
       cy="-3.4420195"
       cx="62.225391"
       gradientTransform="matrix(1,0,0,0.930233,0,-0.240141)"
       gradientUnits="userSpaceOnUse"
       id="radialGradient8774"
       xlink:href="#linearGradient8740"
       inkscape:collect="always" />
    <radialGradient
       r="10.081216"
       fy="-3.4420195"
       fx="62.225391"
       cy="-3.4420195"
       cx="62.225391"
       gradientTransform="matrix(1,0,0,0.930233,0,-0.240141)"
       gradientUnits="userSpaceOnUse"
       id="radialGradient8778"
       xlink:href="#linearGradient8740"
       inkscape:collect="always" />
    <radialGradient
       r="10.081216"
       fy="-3.4420195"
       fx="62.225391"
       cy="-3.4420195"
       cx="62.225391"
       gradientTransform="matrix(1,0,0,0.930233,0,-0.240141)"
       gradientUnits="userSpaceOnUse"
       id="radialGradient8780"
       xlink:href="#linearGradient8740"
       inkscape:collect="always" />
    <radialGradient
       r="10.081216"
       fy="-3.4420195"
       fx="62.225391"
       cy="-3.4420195"
       cx="62.225391"
       gradientTransform="matrix(1,0,0,0.930233,0,-0.240141)"
       gradientUnits="userSpaceOnUse"
       id="radialGradient8782"
       xlink:href="#linearGradient8740"
       inkscape:collect="always" />
    <radialGradient
       r="10.081216"
       fy="-3.4420195"
       fx="62.225391"
       cy="-3.4420195"
       cx="62.225391"
       gradientTransform="matrix(1,0,0,0.930233,0,-0.240141)"
       gradientUnits="userSpaceOnUse"
       id="radialGradient8786"
       xlink:href="#linearGradient8740"
       inkscape:collect="always" />
    <radialGradient
       r="10.081216"
       fy="-3.4420195"
       fx="62.225391"
       cy="-3.4420195"
       cx="62.225391"
       gradientTransform="matrix(1,0,0,0.930233,0,-0.240141)"
       gradientUnits="userSpaceOnUse"
       id="radialGradient8788"
       xlink:href="#linearGradient8740"
       inkscape:collect="always" />
    <radialGradient
       r="10.081216"
       fy="-3.4420195"
       fx="62.225391"
       cy="-3.4420195"
       cx="62.225391"
       gradientTransform="matrix(1,0,0,0.930233,0,-0.240141)"
       gradientUnits="userSpaceOnUse"
       id="radialGradient8792"
       xlink:href="#linearGradient8740"
       inkscape:collect="always" />
    <radialGradient
       r="10.081216"
       fy="-3.4420195"
       fx="62.225391"
       cy="-3.4420195"
       cx="62.225391"
       gradientTransform="matrix(1,0,0,0.930233,0,-0.240141)"
       gradientUnits="userSpaceOnUse"
       id="radialGradient8794"
       xlink:href="#linearGradient8740"
       inkscape:collect="always" />
    <radialGradient
       r="10.081216"
       fy="-3.4420195"
       fx="62.225391"
       cy="-3.4420195"
       cx="62.225391"
       gradientTransform="matrix(1,0,0,0.930233,0,-0.240141)"
       gradientUnits="userSpaceOnUse"
       id="radialGradient8796"
       xlink:href="#linearGradient8740"
       inkscape:collect="always" />
    <radialGradient
       r="10.081216"
       fy="-3.4420195"
       fx="62.225391"
       cy="-3.4420195"
       cx="62.225391"
       gradientTransform="matrix(1,0,0,0.930233,0,-0.240141)"
       gradientUnits="userSpaceOnUse"
       id="radialGradient8798"
       xlink:href="#linearGradient8740"
       inkscape:collect="always" />
    <radialGradient
       r="10.081216"
       fy="-3.4420195"
       fx="62.225391"
       cy="-3.4420195"
       cx="62.225391"
       gradientTransform="matrix(1,0,0,0.930233,0,-0.240141)"
       gradientUnits="userSpaceOnUse"
       id="radialGradient8800"
       xlink:href="#linearGradient8740"
       inkscape:collect="always" />
    <radialGradient
       r="10.081216"
       fy="-3.4420195"
       fx="62.225391"
       cy="-3.4420195"
       cx="62.225391"
       gradientTransform="matrix(1,0,0,0.930233,0,-0.240141)"
       gradientUnits="userSpaceOnUse"
       id="radialGradient8802"
       xlink:href="#linearGradient8740"
       inkscape:collect="always" />
    <radialGradient
       r="10.081216"
       fy="-3.4420195"
       fx="62.225391"
       cy="-3.4420195"
       cx="62.225391"
       gradientTransform="matrix(1,0,0,0.930233,0,-0.240141)"
       gradientUnits="userSpaceOnUse"
       id="radialGradient8804"
       xlink:href="#linearGradient8740"
       inkscape:collect="always" />
    <radialGradient
       r="10.081216"
       fy="-3.4420195"
       fx="62.225391"
       cy="-3.4420195"
       cx="62.225391"
       gradientTransform="matrix(1,0,0,0.930233,0,-0.240141)"
       gradientUnits="userSpaceOnUse"
       id="radialGradient8806"
       xlink:href="#linearGradient8740"
       inkscape:collect="always" />
    <radialGradient
       r="10.081216"
       fy="-3.4420195"
       fx="62.225391"
       cy="-3.4420195"
       cx="62.225391"
       gradientTransform="matrix(1,0,0,0.930233,0,-0.240141)"
       gradientUnits="userSpaceOnUse"
       id="radialGradient8808"
       xlink:href="#linearGradient8740"
       inkscape:collect="always" />
    <radialGradient
       r="10.081216"
       fy="-3.4420195"
       fx="62.225391"
       cy="-3.4420195"
       cx="62.225391"
       gradientTransform="matrix(1,0,0,0.930233,0,-0.240141)"
       gradientUnits="userSpaceOnUse"
       id="radialGradient8810"
       xlink:href="#linearGradient8740"
       inkscape:collect="always" />
    <linearGradient
       id="linearGradient8924">
      <stop
         style="stop-color:#cee14b"
         offset="0"
         id="stop8926" />
      <stop
         style="stop-color:#9db029"
         offset="1"
         id="stop8928" />
    </linearGradient>
    <radialGradient
       r="10.081216"
       fy="-3.4420195"
       fx="62.225391"
       cy="-3.4420195"
       cx="62.225391"
       gradientTransform="matrix(1,0,0,0.930233,0,-0.240141)"
       gradientUnits="userSpaceOnUse"
       id="radialGradient8812"
       xlink:href="#linearGradient8740"
       inkscape:collect="always" />
    <linearGradient
       id="linearGradient8930">
      <stop
         style="stop-color:#cee14b"
         offset="0"
         id="stop8932" />
      <stop
         style="stop-color:#9db029"
         offset="1"
         id="stop8934" />
    </linearGradient>
    <radialGradient
       r="10.081216"
       fy="-3.4420195"
       fx="62.225391"
       cy="-3.4420195"
       cx="62.225391"
       gradientTransform="matrix(1,0,0,0.930233,0,-0.240141)"
       gradientUnits="userSpaceOnUse"
       id="radialGradient8816"
       xlink:href="#linearGradient8740"
       inkscape:collect="always" />
    <linearGradient
       id="linearGradient8912">
      <stop
         id="stop8914"
         offset="0"
         style="stop-color:#cee14b" />
      <stop
         id="stop8916"
         offset="1"
         style="stop-color:#9db029" />
    </linearGradient>
    <radialGradient
       r="10.081216"
       fy="-3.4420195"
       fx="62.225391"
       cy="-3.4420195"
       cx="62.225391"
       gradientTransform="matrix(1,0,0,0.930233,0,-0.240141)"
       gradientUnits="userSpaceOnUse"
       id="radialGradient8820"
       xlink:href="#linearGradient8740"
       inkscape:collect="always" />
    <linearGradient
       id="linearGradient8918">
      <stop
         style="stop-color:#cee14b"
         offset="0"
         id="stop8920" />
      <stop
         style="stop-color:#9db029"
         offset="1"
         id="stop8922" />
    </linearGradient>
    <radialGradient
       r="10.081216"
       fy="-3.4420195"
       fx="62.225391"
       cy="-3.4420195"
       cx="62.225391"
       gradientTransform="matrix(1,0,0,0.930233,0,-0.240141)"
       gradientUnits="userSpaceOnUse"
       id="radialGradient8824"
       xlink:href="#linearGradient8740"
       inkscape:collect="always" />
    <linearGradient
       id="linearGradient6621">
      <stop
         style="stop-color:#f5a108;stop-opacity:0.0000000;"
         offset="0.0000000"
         id="stop6622" />
      <stop
         style="stop-color:#fefdc3;stop-opacity:0.74251497;"
         offset="1.0000000"
         id="stop6623" />
    </linearGradient>
    <linearGradient
       inkscape:collect="always"
       xlink:href="#linearGradient6621"
       id="linearGradient7881"
       x1="22.819513"
       y1="28.829224"
       x2="12.849945"
       y2="12.239423"
       gradientTransform="matrix(1.059395,0,0,0.544945,-15.655091,-70.449043)"
       gradientUnits="userSpaceOnUse" />
    <linearGradient
       inkscape:collect="always"
       id="linearGradient6439">
      <stop
         style="stop-color:#eeeeec;stop-opacity:1;"
         offset="0"
         id="stop6441" />
      <stop
         style="stop-color:#eeeeec;stop-opacity:0;"
         offset="1"
         id="stop6443" />
    </linearGradient>
    <linearGradient
       id="linearGradient6120">
      <stop
         style="stop-color:#2e3436;stop-opacity:0;"
         offset="0"
         id="stop6122" />
      <stop
         id="stop6128"
         offset="0.85294116"
         style="stop-color:#2e3436;stop-opacity:0.49803922;" />
      <stop
         style="stop-color:#2e3436;stop-opacity:1;"
         offset="1"
         id="stop6124" />
    </linearGradient>
    <radialGradient
       inkscape:collect="always"
       xlink:href="#linearGradient6120"
       id="radialGradient6126"
       cx="122.7748"
       cy="122.01913"
       fx="122.7748"
       fy="122.01913"
       r="77.251411"
       gradientUnits="userSpaceOnUse"
       gradientTransform="matrix(1.0292093,1.075662e-2,-1.0237118e-2,0.9759394,-2.2547647,1.7080289)" />
    <linearGradient
       inkscape:collect="always"
       id="linearGradient5009">
      <stop
         style="stop-color:#2e3436;stop-opacity:1;"
         offset="0"
         id="stop5011" />
      <stop
         style="stop-color:#2e3436;stop-opacity:0;"
         offset="1"
         id="stop5013" />
    </linearGradient>
    <linearGradient
       id="linearGradient3718">
      <stop
         id="stop3720"
         offset="0"
         style="stop-color:#ffffff;stop-opacity:1;" />
      <stop
         id="stop3722"
         offset="1"
         style="stop-color:#ffffff;stop-opacity:0;" />
    </linearGradient>
    <linearGradient
       inkscape:collect="always"
       id="linearGradient20125">
      <stop
         style="stop-color:#000000;stop-opacity:1;"
         offset="0"
         id="stop20127" />
      <stop
         style="stop-color:#000000;stop-opacity:0;"
         offset="1"
         id="stop20129" />
    </linearGradient>
    <linearGradient
       id="linearGradient16727">
      <stop
         style="stop-color:#000000;stop-opacity:1;"
         offset="0"
         id="stop16729" />
      <stop
         style="stop-color:#2e3436;stop-opacity:1;"
         offset="1"
         id="stop16731" />
    </linearGradient>
    <linearGradient
       id="linearGradient10800">
      <stop
         style="stop-color:#343434;stop-opacity:1;"
         offset="0"
         id="stop10802" />
      <stop
         style="stop-color:#ce5c00;stop-opacity:1;"
         offset="1"
         id="stop10804" />
    </linearGradient>
    <linearGradient
       id="linearGradient7862">
      <stop
         style="stop-color:#ffffff;stop-opacity:1;"
         offset="0"
         id="stop7864" />
      <stop
         style="stop-color:#ffffff;stop-opacity:0.48369566;"
         offset="1"
         id="stop7866" />
    </linearGradient>
    <linearGradient
       id="linearGradient6878">
      <stop
         style="stop-color:#fcaf3e;stop-opacity:1;"
         offset="0"
         id="stop6880" />
      <stop
         style="stop-color:#f57900;stop-opacity:1;"
         offset="1"
         id="stop6882" />
    </linearGradient>
    <linearGradient
       inkscape:collect="always"
       id="linearGradient9617">
      <stop
         style="stop-color:#ffffff;stop-opacity:1;"
         offset="0"
         id="stop9619" />
      <stop
         style="stop-color:#ffffff;stop-opacity:0;"
         offset="1"
         id="stop9621" />
    </linearGradient>
    <linearGradient
       id="linearGradient7627">
      <stop
         style="stop-color:#2e3436;stop-opacity:1;"
         offset="0"
         id="stop7629" />
      <stop
         style="stop-color:#000000;stop-opacity:1;"
         offset="1"
         id="stop7631" />
    </linearGradient>
    <linearGradient
       id="linearGradient3821">
      <stop
         style="stop-color:#75796d;stop-opacity:1;"
         offset="0"
         id="stop3823" />
      <stop
         style="stop-color:#000000;stop-opacity:1;"
         offset="1"
         id="stop3825" />
    </linearGradient>
    <linearGradient
       inkscape:collect="always"
       xlink:href="#linearGradient9617"
       id="linearGradient19105"
       gradientUnits="userSpaceOnUse"
       gradientTransform="matrix(0.6289019,0.6289019,-0.6289019,0.6289019,23.518554,-6.5382394)"
       x1="10.85426"
       y1="9.0594749"
       x2="29.972343"
       y2="12.551182" />
    <radialGradient
       inkscape:collect="always"
       xlink:href="#linearGradient3821"
       id="radialGradient19108"
       gradientUnits="userSpaceOnUse"
       gradientTransform="matrix(0.4788657,0.4788657,-0.3990012,0.3990012,24.088617,0.5503937)"
       cx="22.320988"
       cy="8.7810698"
       fx="22.320988"
       fy="8.7810698"
       r="5.8765426" />
    <linearGradient
       inkscape:collect="always"
       xlink:href="#linearGradient10800"
       id="linearGradient19111"
       gradientUnits="userSpaceOnUse"
       gradientTransform="matrix(0.6289019,0.6289019,-0.6289019,0.6289019,23.518554,-6.5382394)"
       x1="13.675855"
       y1="12.46873"
       x2="13.675855"
       y2="44.6875" />
    <linearGradient
       inkscape:collect="always"
       xlink:href="#linearGradient10800"
       id="linearGradient19114"
       gradientUnits="userSpaceOnUse"
       gradientTransform="matrix(0.6289019,0.6289019,-0.6289019,0.6289019,23.518554,-6.5382394)"
       x1="23.6875"
       y1="12.46873"
       x2="23.6875"
       y2="44.6875" />
    <radialGradient
       inkscape:collect="always"
       xlink:href="#linearGradient7862"
       id="radialGradient19117"
       gradientUnits="userSpaceOnUse"
       gradientTransform="matrix(2.0832536,1.0260687,-2.6096401,5.1892494,53.7775,-140.01755)"
       cx="17.97797"
       cy="26.878088"
       fx="17.97797"
       fy="26.878088"
       r="4.4293375" />
    <radialGradient
       inkscape:collect="always"
       xlink:href="#linearGradient7862"
       id="radialGradient19120"
       gradientUnits="userSpaceOnUse"
       gradientTransform="matrix(3.4740677,1.6118146,-2.9811793,6.0721624,43.928509,-157.69744)"
       cx="15.165148"
       cy="24.656099"
       fx="15.165148"
       fy="24.656099"
       r="4.4293375" />
    <radialGradient
       inkscape:collect="always"
       xlink:href="#linearGradient3718"
       id="radialGradient19123"
       gradientUnits="userSpaceOnUse"
       gradientTransform="matrix(1.926452,0.5209552,-0.7405281,2.6859944,14.628716,-31.340181)"
       cx="9.4155846"
       cy="11.496181"
       fx="9.4155846"
       fy="11.496181"
       r="9.890625" />
    <radialGradient
       inkscape:collect="always"
       xlink:href="#linearGradient6878"
       id="radialGradient19126"
       gradientUnits="userSpaceOnUse"
       gradientTransform="matrix(-0.2765445,-0.2765445,1.6429885,-1.6429885,-14.065617,74.833681)"
       cx="24.363298"
       cy="28.883881"
       fx="24.363298"
       fy="28.883881"
       r="9.90625" />
    <radialGradient
       inkscape:collect="always"
       xlink:href="#linearGradient6878"
       id="radialGradient19129"
       gradientUnits="userSpaceOnUse"
       gradientTransform="matrix(0.2861102,0.2861102,1.6429885,-1.6429885,-27.607957,61.291341)"
       cx="24.363298"
       cy="28.883881"
       fx="24.363298"
       fy="28.883881"
       r="9.90625" />
    <linearGradient
       inkscape:collect="always"
       xlink:href="#linearGradient9617"
       id="linearGradient19132"
       gradientUnits="userSpaceOnUse"
       gradientTransform="matrix(0.7325847,0.7325847,-0.5450179,0.5450179,17.588346,-5.1278494)"
       x1="30.365795"
       y1="31.133732"
       x2="30.365795"
       y2="49.425411" />
    <radialGradient
       inkscape:collect="always"
       xlink:href="#linearGradient3821"
       id="radialGradient19135"
       gradientUnits="userSpaceOnUse"
       gradientTransform="matrix(0.8740619,0.8740619,-1.6278256,1.6278256,43.228958,-37.559368)"
       cx="24"
       cy="28.363541"
       fx="24"
       fy="28.363541"
       r="6.7860088" />
    <radialGradient
       inkscape:collect="always"
       xlink:href="#linearGradient16727"
       id="radialGradient19138"
       gradientUnits="userSpaceOnUse"
       gradientTransform="matrix(0.6289019,0.6289019,-0.5527975,0.5527975,21.306294,-4.3259797)"
       cx="24.703125"
       cy="29.068731"
       fx="24.703125"
       fy="29.068731"
       r="18.515625" />
    <radialGradient
       inkscape:collect="always"
       xlink:href="#linearGradient20125"
       id="radialGradient20131"
       cx="21.991045"
       cy="26.89328"
       fx="21.991045"
       fy="26.89328"
       r="15.02314"
       gradientTransform="matrix(0.5308558,0.4952531,-0.635795,0.6815008,27.023251,-0.6678098)"
       gradientUnits="userSpaceOnUse" />
    <linearGradient
       inkscape:collect="always"
       xlink:href="#linearGradient9617"
       id="linearGradient3739"
       gradientUnits="userSpaceOnUse"
       gradientTransform="matrix(0.6289019,0.6289019,-0.6289019,0.6289019,23.518554,-6.5382394)"
       x1="10.85426"
       y1="9.0594749"
       x2="29.972343"
       y2="12.551182" />
    <radialGradient
       inkscape:collect="always"
       xlink:href="#linearGradient3821"
       id="radialGradient3742"
       gradientUnits="userSpaceOnUse"
       gradientTransform="matrix(0.4332708,0.4332712,-0.3610105,0.3610108,25.19497,2.8460138)"
       cx="22.320988"
       cy="8.7810698"
       fx="22.320988"
       fy="8.7810698"
       r="5.8765426" />
    <linearGradient
       inkscape:collect="always"
       xlink:href="#linearGradient10800"
       id="linearGradient3745"
       gradientUnits="userSpaceOnUse"
       gradientTransform="matrix(0.6289019,0.6289019,-0.6289019,0.6289019,23.518554,-6.5382394)"
       x1="13.675855"
       y1="12.46873"
       x2="13.675855"
       y2="44.6875" />
    <linearGradient
       inkscape:collect="always"
       xlink:href="#linearGradient10800"
       id="linearGradient3748"
       gradientUnits="userSpaceOnUse"
       gradientTransform="matrix(0.6289019,0.6289019,-0.6289019,0.6289019,23.518554,-6.5382394)"
       x1="23.6875"
       y1="12.46873"
       x2="23.6875"
       y2="44.6875" />
    <radialGradient
       inkscape:collect="always"
       xlink:href="#linearGradient7862"
       id="radialGradient3751"
       gradientUnits="userSpaceOnUse"
       gradientTransform="matrix(2.0832536,1.0260687,-2.6096401,5.1892494,53.7775,-140.01755)"
       cx="17.97797"
       cy="26.878088"
       fx="17.97797"
       fy="26.878088"
       r="4.4293375" />
    <radialGradient
       inkscape:collect="always"
       xlink:href="#linearGradient7862"
       id="radialGradient3754"
       gradientUnits="userSpaceOnUse"
       gradientTransform="matrix(3.4740677,1.6118146,-2.9811793,6.0721624,43.928509,-157.69744)"
       cx="15.165148"
       cy="24.656099"
       fx="15.165148"
       fy="24.656099"
       r="4.4293375" />
    <radialGradient
       inkscape:collect="always"
       xlink:href="#linearGradient3718"
       id="radialGradient3757"
       gradientUnits="userSpaceOnUse"
       gradientTransform="matrix(1.7430258,0.4713531,-0.6700192,2.4302509,16.57022,-25.942573)"
       cx="9.4155846"
       cy="11.496181"
       fx="9.4155846"
       fy="11.496181"
       r="9.890625" />
    <radialGradient
       inkscape:collect="always"
       xlink:href="#linearGradient6878"
       id="radialGradient3760"
       gradientUnits="userSpaceOnUse"
       gradientTransform="matrix(-0.2502135,-0.2502136,1.4865523,-1.4865534,-9.3264282,70.056511)"
       cx="24.363298"
       cy="28.883881"
       fx="24.363298"
       fy="28.883881"
       r="9.90625" />
    <radialGradient
       inkscape:collect="always"
       xlink:href="#linearGradient6878"
       id="radialGradient3763"
       gradientUnits="userSpaceOnUse"
       gradientTransform="matrix(0.2588683,0.2588686,1.4865523,-1.4865534,-21.579342,57.803588)"
       cx="24.363298"
       cy="28.883881"
       fx="24.363298"
       fy="28.883881"
       r="9.90625" />
    <linearGradient
       inkscape:collect="always"
       xlink:href="#linearGradient9617"
       id="linearGradient3766"
       gradientUnits="userSpaceOnUse"
       gradientTransform="matrix(0.7325847,0.7325847,-0.5450179,0.5450179,17.588346,-5.1278494)"
       x1="30.365795"
       y1="31.133732"
       x2="30.365795"
       y2="49.425411" />
    <radialGradient
       inkscape:collect="always"
       xlink:href="#linearGradient3821"
       id="radialGradient3769"
       gradientUnits="userSpaceOnUse"
       gradientTransform="matrix(0.7908385,0.7908393,-1.4728331,1.4728344,42.512875,-31.635178)"
       cx="24"
       cy="28.363541"
       fx="24"
       fy="28.363541"
       r="6.7860088" />
    <radialGradient
       inkscape:collect="always"
       xlink:href="#linearGradient16727"
       id="radialGradient3772"
       gradientUnits="userSpaceOnUse"
       gradientTransform="matrix(0.5690214,0.5690217,-0.5001632,0.5001636,22.677564,-1.5660619)"
       cx="24.703125"
       cy="29.068731"
       fx="24.703125"
       fy="29.068731"
       r="18.515625" />
    <radialGradient
       inkscape:collect="always"
       xlink:href="#linearGradient20125"
       id="radialGradient3775"
       gradientUnits="userSpaceOnUse"
       gradientTransform="matrix(0.4803107,0.4480982,-0.5752582,0.6166125,27.850185,1.7437999)"
       cx="21.991045"
       cy="26.89328"
       fx="21.991045"
       fy="26.89328"
       r="15.02314" />
    <radialGradient
       inkscape:collect="always"
       xlink:href="#linearGradient6878"
       id="radialGradient5000"
       gradientUnits="userSpaceOnUse"
       gradientTransform="matrix(-0.2502135,-0.2502136,1.4865523,-1.4865534,-9.2480142,69.954456)"
       cx="24.363298"
       cy="28.883881"
       fx="24.363298"
       fy="28.883881"
       r="9.90625" />
    <radialGradient
       inkscape:collect="always"
       xlink:href="#linearGradient6878"
       id="radialGradient5004"
       gradientUnits="userSpaceOnUse"
       gradientTransform="matrix(-0.2502135,-0.2502136,1.4865523,-1.4865534,-8.0677761,71.069125)"
       cx="24.363298"
       cy="28.883881"
       fx="24.363298"
       fy="28.883881"
       r="9.90625" />
    <radialGradient
       inkscape:collect="always"
       xlink:href="#linearGradient5009"
       id="radialGradient5015"
       cx="3.8721294"
       cy="22.949808"
       fx="3.8721294"
       fy="22.949808"
       r="8.844265"
       gradientTransform="matrix(0.5862748,0.5842933,-1.5339663,1.5391674,43.72963,-19.882281)"
       gradientUnits="userSpaceOnUse" />
    <radialGradient
       inkscape:collect="always"
       xlink:href="#linearGradient6878"
       id="radialGradient5356"
       gradientUnits="userSpaceOnUse"
       gradientTransform="matrix(0.3660953,2.1213203e-7,-7.7781746e-7,-2.1023032,-33.454537,76.547862)"
       cx="24.363298"
       cy="28.883881"
       fx="24.363298"
       fy="28.883881"
       r="9.90625" />
    <radialGradient
       inkscape:collect="always"
       xlink:href="#linearGradient6878"
       id="radialGradient5358"
       gradientUnits="userSpaceOnUse"
       gradientTransform="matrix(-0.3538554,-7.0710678e-8,-7.7781746e-7,-2.1023032,-16.126294,76.547868)"
       cx="24.363298"
       cy="28.883881"
       fx="24.363298"
       fy="28.883881"
       r="9.90625" />
    <radialGradient
       inkscape:collect="always"
       xlink:href="#linearGradient6878"
       id="radialGradient5370"
       gradientUnits="userSpaceOnUse"
       gradientTransform="matrix(-0.3538554,-7.0710678e-8,-7.7781746e-7,-2.1023032,-16.126294,76.547868)"
       cx="24.363298"
       cy="28.883881"
       fx="24.363298"
       fy="28.883881"
       r="9.90625" />
    <radialGradient
       inkscape:collect="always"
       xlink:href="#linearGradient6878"
       id="radialGradient5373"
       gradientUnits="userSpaceOnUse"
       gradientTransform="matrix(0.3660953,2.1213203e-7,-7.7781746e-7,-2.1023032,-33.454537,76.547862)"
       cx="24.363298"
       cy="28.883881"
       fx="24.363298"
       fy="28.883881"
       r="9.90625" />
    <radialGradient
       inkscape:collect="always"
       xlink:href="#linearGradient6878"
       id="radialGradient5382"
       gradientUnits="userSpaceOnUse"
       gradientTransform="matrix(-0.2502135,-0.2502136,1.4865523,-1.4865534,-9.3264282,70.056511)"
       cx="24.363298"
       cy="28.883881"
       fx="24.363298"
       fy="28.883881"
       r="9.90625" />
    <radialGradient
       inkscape:collect="always"
       xlink:href="#linearGradient6878"
       id="radialGradient5385"
       gradientUnits="userSpaceOnUse"
       gradientTransform="matrix(0.2588683,0.2588686,1.4865523,-1.4865534,-11.750146,61.744539)"
       cx="24.363298"
       cy="28.883881"
       fx="24.363298"
       fy="28.883881"
       r="9.90625" />
    <radialGradient
       inkscape:collect="always"
       xlink:href="#linearGradient6878"
       id="radialGradient5418"
       gradientUnits="userSpaceOnUse"
       gradientTransform="matrix(0.3660953,2.1213203e-7,-7.7781746e-7,-2.1023032,-51.757338,74.292232)"
       cx="24.363298"
       cy="28.883881"
       fx="24.363298"
       fy="28.883881"
       r="9.90625" />
    <radialGradient
       inkscape:collect="always"
       xlink:href="#linearGradient6878"
       id="radialGradient5420"
       gradientUnits="userSpaceOnUse"
       gradientTransform="matrix(-0.3538554,-7.0710678e-8,-7.7781746e-7,-2.1023032,-34.429094,74.292238)"
       cx="24.363298"
       cy="28.883881"
       fx="24.363298"
       fy="28.883881"
       r="9.90625" />
    <radialGradient
       inkscape:collect="always"
       xlink:href="#linearGradient6439"
       id="radialGradient6445"
       cx="-43.274357"
       cy="19.408314"
       fx="-43.274357"
       fy="19.408314"
       r="7.1942062"
       gradientTransform="matrix(1.0652811,6.4447066e-3,-9.7623556e-3,1.6135965,32.687512,-16.438202)"
       gradientUnits="userSpaceOnUse" />
    <linearGradient
       inkscape:collect="always"
       xlink:href="#linearGradient2319"
       id="linearGradient2327"
       x1="46.563957"
       y1="36.275269"
       x2="46.563957"
       y2="68.783875"
       gradientUnits="userSpaceOnUse"
       gradientTransform="translate(0,2)" />
    <linearGradient
       inkscape:collect="always"
       xlink:href="#linearGradient3332"
       id="linearGradient3338"
       x1="47.465206"
       y1="38.55658"
       x2="47.465206"
       y2="96.125"
       gradientUnits="userSpaceOnUse" />
  </defs>
  <sodipodi:namedview
     id="base"
     pagecolor="#ffffff"
     bordercolor="#666666"
     borderopacity="1.0"
     gridtolerance="10000"
     guidetolerance="10"
     objecttolerance="10"
     inkscape:pageopacity="0.0"
     inkscape:pageshadow="2"
     inkscape:zoom="4.79"
     inkscape:cx="50"
     inkscape:cy="50"
     inkscape:document-units="px"
     inkscape:current-layer="layer1"
     inkscape:window-width="1016"
     inkscape:window-height="692"
     inkscape:window-x="0"
     inkscape:window-y="25"
     width="100px"
     height="100px" />
  <metadata
     id="metadata7">
    <rdf:RDF>
      <cc:Work
         rdf:about="">
        <dc:format>image/svg+xml</dc:format>
        <dc:type
           rdf:resource="http://purl.org/dc/dcmitype/StillImage" />
      </cc:Work>
    </rdf:RDF>
  </metadata>
  <g
     inkscape:label="Layer 1"
     inkscape:groupmode="layer"
     id="layer1">
    <g
       id="background">
      <path
         id="path4349"
         d="M 79.620438,3.8641069 C 60.424515,3.8641069 56.823964,31.204395 67.622743,31.204395 C 78.419963,31.204395 98.817147,3.8641069 79.620438,3.8641069 z "
         style="fill:#1e1e1e;fill-opacity:1;fill-rule:nonzero;stroke:none;stroke-miterlimit:4" />
      <path
         id="path4347"
         d="M 49.962373,7.2123791 C 49.657553,7.2113229 49.333784,7.2327572 48.996078,7.2765661 C 38.193384,8.6786965 41.993889,27.464457 47.745958,27.815573 C 53.316004,28.155713 59.411718,7.2449299 49.962373,7.2123791 z "
         style="fill:#1e1e1e;fill-opacity:1;fill-rule:nonzero;stroke:none;stroke-miterlimit:4" />
      <path
         id="path4345"
         d="M 31.57897,14.652233 C 30.918821,14.609132 30.183177,14.738743 29.369317,15.074568 C 20.686596,18.657523 28.052795,33.448556 32.916926,32.454502 C 37.328592,31.55506 37.960427,15.068913 31.57897,14.652233 z "
         style="fill:#1e1e1e;fill-opacity:1;fill-rule:nonzero;stroke:none;stroke-miterlimit:4" />
      <path
         id="path4343"
         d="M 17.408785,26.241105 C 16.65387,26.215703 15.838581,26.465289 14.969371,27.065514 C 8.0188223,31.868008 17.306289,43.467443 21.395629,41.668172 C 24.973791,40.093112 22.693202,26.418955 17.408785,26.241105 z "
         style="fill:#1e1e1e;fill-opacity:1;fill-rule:nonzero;stroke:none;stroke-miterlimit:4" />
      <path
         d="M 57.09375,35.125 C 42.192699,34.872916 22.539687,42.33156 19.1875,57.34375 C 15.55695,73.58952 34.149618,96.125 53.53125,96.125 C 63.066021,96.125011 74.036199,87.531472 76.09375,76.625 C 77.665174,68.308218 57.622789,71.653083 58.34375,77.15625 C 59.207498,83.752562 53.491341,87.002416 47.90625,82.75 C 30.126487,69.213278 77.362456,62.462455 74.25,43.96875 C 73.281209,38.212197 66.034378,35.276264 57.09375,35.125 z "
         id="path3323"
         style="fill:#1e1e1e;fill-opacity:1;fill-rule:nonzero;stroke:none;stroke-miterlimit:4"
         inkscape:original="M 57.09375 35.125 C 42.192699 34.872916 22.539687 42.33156 19.1875 57.34375 C 15.55695 73.58952 34.149618 96.125 53.53125 96.125 C 63.066021 96.125011 74.036199 87.531472 76.09375 76.625 C 77.665174 68.308218 57.622789 71.653083 58.34375 77.15625 C 59.207498 83.752562 53.491341 87.002416 47.90625 82.75 C 30.126487 69.213278 77.362456 62.462455 74.25 43.96875 C 73.281209 38.212197 66.034378 35.276264 57.09375 35.125 z "
         inkscape:radius="0"
         sodipodi:type="inkscape:offset" />
      <path
         id="path3327"
         d="M 57.0625,38.5625 C 49.86174,38.440683 41.416255,40.199136 34.46875,43.78125 C 27.521245,47.363364 22.15098,52.682466 20.59375,59.65625 C 18.92286,67.133049 22.411614,76.460796 28.8125,83.875 C 29.212555,84.338388 29.610152,84.803187 30.03125,85.25 C 30.291715,85.509 30.545431,85.778742 30.8125,86.03125 C 37.132528,92.006716 45.253678,96.125 53.53125,96.125 C 58.195069,96.125005 63.204094,94.064596 67.34375,90.6875 C 70.973883,87.426331 73.789064,83.106094 74.6875,78.34375 C 74.833943,77.5687 74.716716,77.129429 74.5,76.75 C 74.283284,76.370571 73.909942,76.012715 73.28125,75.71875 C 72.023866,75.13082 69.878573,74.900276 67.6875,75.125 C 65.496427,75.349724 63.239404,76.013163 61.71875,76.84375 C 60.958423,77.259043 60.398207,77.708746 60.09375,78.09375 C 59.789293,78.478754 59.716663,78.714285 59.75,78.96875 C 60.238672,82.700666 58.812149,85.861448 56.21875,87.28125 C 53.625351,88.701052 50.151416,88.281904 47.03125,85.90625 C 44.66421,84.104091 43.223214,82.296068 42.6875,80.34375 C 42.151786,78.391432 42.657625,76.423454 43.75,74.78125 C 44.439902,73.744099 45.356285,72.779599 46.40625,71.84375 C 51.251383,66.912294 62.004351,62.228306 68.6875,56.15625 C 68.765204,56.078958 68.861584,56.014915 68.9375,55.9375 C 71.867854,52.949296 73.456444,49.859279 72.84375,46.21875 C 72.449829,43.878073 70.811203,42.091919 68.03125,40.75 C 65.251297,39.408081 61.382499,38.635589 57.0625,38.5625 z "
         style="fill:url(#linearGradient3338);fill-opacity:1.0;fill-rule:nonzero;stroke:none;stroke-miterlimit:4" />
    </g>
    <path
       style="fill:#edd400;fill-opacity:1;fill-rule:nonzero;stroke:none;stroke-miterlimit:4"
       d="M 49.96875 10.375 C 49.721288 10.374137 49.447854 10.399668 49.15625 10.4375 C 46.793001 10.74424 45.395488 11.897555 44.46875 13.59375 C 43.542012 15.289958 43.163658 17.580074 43.3125 19.875 C 43.461343 22.169925 44.135003 24.445473 45.03125 26.09375 C 45.079363 26.182234 45.138351 26.259834 45.1875 26.34375 C 45.211897 26.37107 45.225397 26.41084 45.25 26.4375 C 46.005207 27.255855 46.851239 27.757638 47.75 27.8125 C 48.768574 27.8747 49.825793 27.226444 50.78125 26.125 C 50.800099 26.095127 50.82499 26.061538 50.84375 26.03125 C 51.927706 24.281251 52.859237 21.85733 53.34375 19.4375 C 53.836649 16.975776 53.843591 14.519014 53.28125 12.875 C 52.718907 11.230987 51.90165 10.381647 49.96875 10.375 z "
       id="yellow" />
    <path
       style="fill:#cc0000;fill-opacity:1;fill-rule:nonzero;stroke:none;stroke-miterlimit:4"
       d="M 31.15625 17.8125 C 30.776561 17.836368 30.324711 17.944899 29.8125 18.15625 C 27.956296 18.922217 27.101334 20.140186 26.71875 21.71875 C 26.336166 23.297315 26.526566 25.237622 27.15625 27.09375 C 27.506697 28.126788 28.017453 29.118589 28.5625 30 C 29.934585 31.685108 31.506473 32.754814 32.90625 32.46875 C 33.288203 32.390878 33.645561 32.165995 33.96875 31.875 C 34.103129 31.609654 34.256961 31.310411 34.375 30.96875 C 34.893943 29.466673 35.166619 27.427193 35.125 25.40625 C 35.083379 23.385307 34.725985 21.36453 34.0625 19.96875 C 33.399017 18.572957 32.59646 17.884093 31.5 17.8125 C 31.3868 17.805106 31.282813 17.804544 31.15625 17.8125 z "
       id="red" />
    <path
       style="fill:#3465a4;fill-opacity:1;fill-rule:nonzero;stroke:none;stroke-miterlimit:4"
       d="M 79.625 7.03125 C 70.579274 7.03125 65.341881 13.386963 63.5 19.84375 C 62.579072 23.07215 62.569294 26.309554 63.34375 28.5625 C 63.465586 28.916929 63.600764 29.2281 63.75 29.53125 C 64.71781 30.577016 66.005183 31.21875 67.625 31.21875 C 72.213819 31.21875 78.532092 26.27284 82.8125 20.59375 C 82.905713 20.457305 83.003407 20.324222 83.09375 20.1875 C 83.364778 19.777334 83.631945 19.347761 83.875 18.9375 C 85.819438 15.655397 86.709085 12.437988 86.21875 10.40625 C 85.973582 9.3903878 85.480078 8.6320674 84.46875 8.03125 C 83.457432 7.430433 81.886538 7.03125 79.625 7.03125 z "
       id="blue" />
    <path
       style="fill:#4e9a06;fill-opacity:1;fill-rule:nonzero;stroke:none;stroke-miterlimit:4"
       d="M 17.375 29.40625 C 16.904167 29.390405 16.338425 29.538609 15.625 30.03125 C 14.167197 31.038521 13.660294 32.226451 13.625 33.65625 C 13.589705 35.086049 14.13311 36.752369 15.03125 38.25 C 15.045602 38.268359 15.048074 38.294234 15.0625 38.3125 C 17.027694 40.800921 19.683299 42.414332 21.40625 41.65625 C 21.473341 41.626718 21.53076 41.600371 21.59375 41.5625 C 21.704344 41.256059 21.813641 40.915641 21.875 40.46875 C 22.056342 39.14799 21.96089 37.392261 21.59375 35.6875 C 21.226598 33.982737 20.594311 32.311641 19.8125 31.15625 C 19.030689 30.000845 18.198108 29.433957 17.375 29.40625 z "
       id="green" />
  </g>
</svg>
