<?xml version="1.0" encoding="UTF-8" standalone="no"?>
<!-- Created with Inkscape (http://www.inkscape.org/) -->
<svg
   xmlns:dc="http://purl.org/dc/elements/1.1/"
   xmlns:cc="http://web.resource.org/cc/"
   xmlns:rdf="http://www.w3.org/1999/02/22-rdf-syntax-ns#"
   xmlns:svg="http://www.w3.org/2000/svg"
   xmlns="http://www.w3.org/2000/svg"
   xmlns:xlink="http://www.w3.org/1999/xlink"
   xmlns:sodipodi="http://sodipodi.sourceforge.net/DTD/sodipodi-0.dtd"
   xmlns:inkscape="http://www.inkscape.org/namespaces/inkscape"
   width="100"
   height="100"
   id="svg2"
   sodipodi:version="0.32"
   inkscape:version="0.45.1"
   version="1.0"
   sodipodi:docbase="/home/bruno/development/gnome/subversion/gnome-edu/garfunkel/pixmaps/default"
   sodipodi:docname="garfunkel.svg"
   inkscape:output_extension="org.inkscape.output.svg.inkscape"
   inkscape:export-filename="/home/bruno/Desktop/genius.png"
   inkscape:export-xdpi="90"
   inkscape:export-ydpi="90">
  <defs
     id="defs4">
    <linearGradient
       id="linearGradient2419"
       inkscape:collect="always">
      <stop
         id="stop2421"
         offset="0"
         style="stop-color:#3b3b3b;stop-opacity:1" />
      <stop
         id="stop2423"
         offset="1"
         style="stop-color:#010101;stop-opacity:1" />
    </linearGradient>
    <linearGradient
       id="linearGradient5684">
      <stop
         style="stop-color:#eeeeec;stop-opacity:0.50980395;"
         offset="0"
         id="stop5686" />
      <stop
         style="stop-color:#eeeeec;stop-opacity:0;"
         offset="1"
         id="stop5688" />
    </linearGradient>
    <linearGradient
       id="linearGradient5676">
      <stop
         style="stop-color:#eeeeec;stop-opacity:0.50980395;"
         offset="0"
         id="stop5678" />
      <stop
         style="stop-color:#eeeeec;stop-opacity:0;"
         offset="1"
         id="stop5680" />
    </linearGradient>
    <linearGradient
       id="linearGradient5668">
      <stop
         style="stop-color:#eeeeec;stop-opacity:0.50980395;"
         offset="0"
         id="stop5670" />
      <stop
         style="stop-color:#eeeeec;stop-opacity:0;"
         offset="1"
         id="stop5672" />
    </linearGradient>
    <linearGradient
       id="linearGradient5660">
      <stop
         style="stop-color:#eeeeec;stop-opacity:0.50980395;"
         offset="0"
         id="stop5662" />
      <stop
         style="stop-color:#eeeeec;stop-opacity:0;"
         offset="1"
         id="stop5664" />
    </linearGradient>
    <linearGradient
       inkscape:collect="always"
       id="linearGradient28044">
      <stop
         style="stop-color:#555753;stop-opacity:1"
         offset="0"
         id="stop28046" />
      <stop
         style="stop-color:#323232;stop-opacity:1"
         offset="1"
         id="stop28048" />
    </linearGradient>
    <linearGradient
       id="linearGradient28034"
       inkscape:collect="always">
      <stop
         id="stop28036"
         offset="0"
         style="stop-color:#3b3b3b;stop-opacity:1" />
      <stop
         id="stop28038"
         offset="1"
         style="stop-color:#2e3436;stop-opacity:1" />
    </linearGradient>
    <linearGradient
       id="linearGradient26072">
      <stop
         style="stop-color:#2e3436;stop-opacity:1;"
         offset="0"
         id="stop26074" />
      <stop
         style="stop-color:#2e3436;stop-opacity:0"
         offset="1"
         id="stop26076" />
    </linearGradient>
    <linearGradient
       inkscape:collect="always"
       id="linearGradient26064">
      <stop
         style="stop-color:#555753;stop-opacity:1"
         offset="0"
         id="stop26066" />
      <stop
         style="stop-color:#2e3436;stop-opacity:0"
         offset="1"
         id="stop26068" />
    </linearGradient>
    <linearGradient
       inkscape:collect="always"
       id="linearGradient25081">
      <stop
         style="stop-color:#292929;stop-opacity:1;"
         offset="0"
         id="stop25083" />
      <stop
         style="stop-color:#292929;stop-opacity:0;"
         offset="1"
         id="stop25085" />
    </linearGradient>
    <linearGradient
       id="linearGradient23127">
      <stop
         id="stop23129"
         offset="0"
         style="stop-color:#595959;stop-opacity:1" />
      <stop
         id="stop23131"
         offset="1"
         style="stop-color:#7a7a7a;stop-opacity:0.03867403" />
    </linearGradient>
    <linearGradient
       id="linearGradient18245">
      <stop
         style="stop-color:#ffffff;stop-opacity:0"
         offset="0"
         id="stop18247" />
      <stop
         style="stop-color:#ffffff;stop-opacity:0.58823532;"
         offset="1"
         id="stop18249" />
    </linearGradient>
    <linearGradient
       id="linearGradient18239">
      <stop
         id="stop18241"
         offset="0"
         style="stop-color:#ffffff;stop-opacity:0" />
      <stop
         id="stop18243"
         offset="1"
         style="stop-color:#ffffff;stop-opacity:0.58823532;" />
    </linearGradient>
    <linearGradient
       id="linearGradient18170">
      <stop
         id="stop18172"
         offset="0"
         style="stop-color:#ffffff;stop-opacity:0" />
      <stop
         id="stop18174"
         offset="1"
         style="stop-color:#ffffff;stop-opacity:0.58823532;" />
    </linearGradient>
    <linearGradient
       id="linearGradient18146">
      <stop
         style="stop-color:#ffffff;stop-opacity:0"
         offset="0"
         id="stop18148" />
      <stop
         style="stop-color:#ffffff;stop-opacity:0.58823532;"
         offset="1"
         id="stop18150" />
    </linearGradient>
    <linearGradient
       id="linearGradient14127"
       inkscape:collect="always">
      <stop
         id="stop14129"
         offset="0"
         style="stop-color:#0b0b0b;stop-opacity:1" />
      <stop
         id="stop14131"
         offset="1"
         style="stop-color:#4d4e4e;stop-opacity:1" />
    </linearGradient>
    <linearGradient
       inkscape:collect="always"
       id="linearGradient14119">
      <stop
         style="stop-color:#3c3c3c;stop-opacity:1"
         offset="0"
         id="stop14121" />
      <stop
         style="stop-color:#010101;stop-opacity:1"
         offset="1"
         id="stop14123" />
    </linearGradient>
    <linearGradient
       id="linearGradient7339">
      <stop
         style="stop-color:#222222;stop-opacity:1;"
         offset="0"
         id="stop7341" />
      <stop
         style="stop-color:#323232;stop-opacity:1;"
         offset="1"
         id="stop7343" />
    </linearGradient>
    <linearGradient
       id="linearGradient6138">
      <stop
         id="stop6140"
         offset="0"
         style="stop-color:#323232;stop-opacity:1;" />
      <stop
         style="stop-color:#c8c8c8;stop-opacity:1;"
         offset="0.5"
         id="stop6144" />
      <stop
         id="stop6142"
         offset="1"
         style="stop-color:#323232;stop-opacity:1;" />
    </linearGradient>
    <filter
       x="-0.21699429"
       width="1.4339886"
       y="-1.0558108"
       height="3.1116216"
       id="filter8598">
      <feGaussianBlur
         inkscape:collect="always"
         stdDeviation="16.274443"
         id="feGaussianBlur8600" />
    </filter>
    <linearGradient
       inkscape:collect="always"
       xlink:href="#linearGradient18239"
       id="linearGradient18216"
       gradientUnits="userSpaceOnUse"
       x1="228.84381"
       y1="604.125"
       x2="137.31253"
       y2="787.24548"
       gradientTransform="matrix(1,0,0,-1,0,1608.2862)" />
    <linearGradient
       inkscape:collect="always"
       xlink:href="#linearGradient18245"
       id="linearGradient18221"
       gradientUnits="userSpaceOnUse"
       gradientTransform="matrix(0,-1,-1,0,1049.4865,1050.4306)"
       x1="45.7812"
       y1="787.24554"
       x2="228.8438"
       y2="695.68524" />
    <linearGradient
       inkscape:collect="always"
       xlink:href="#linearGradient18146"
       id="linearGradient18228"
       gradientUnits="userSpaceOnUse"
       x1="137.131"
       y1="791.1806"
       x2="232.8185"
       y2="599.77435" />
    <linearGradient
       inkscape:collect="always"
       xlink:href="#linearGradient18170"
       id="linearGradient18235"
       gradientUnits="userSpaceOnUse"
       gradientTransform="matrix(0,1,-1,0,1049.4865,557.85558)"
       x1="228.84381"
       y1="695.68524"
       x2="45.78125"
       y2="787.24554" />
    <linearGradient
       inkscape:collect="always"
       xlink:href="#linearGradient25081"
       id="linearGradient25087"
       x1="535.61847"
       y1="36.582775"
       x2="535.61847"
       y2="49.25547"
       gradientUnits="userSpaceOnUse" />
    <linearGradient
       inkscape:collect="always"
       xlink:href="#linearGradient26064"
       id="linearGradient26070"
       x1="535.61847"
       y1="50.280807"
       x2="535.1142"
       y2="22.503313"
       gradientUnits="userSpaceOnUse" />
    <linearGradient
       inkscape:collect="always"
       xlink:href="#linearGradient26072"
       id="linearGradient26078"
       x1="535.61847"
       y1="57.996605"
       x2="535.61847"
       y2="35.682236"
       gradientUnits="userSpaceOnUse" />
    <linearGradient
       inkscape:collect="always"
       xlink:href="#linearGradient26072"
       id="linearGradient28024"
       gradientUnits="userSpaceOnUse"
       x1="535.61847"
       y1="57.996605"
       x2="535.61847"
       y2="35.682236" />
    <linearGradient
       inkscape:collect="always"
       xlink:href="#linearGradient26064"
       id="linearGradient28026"
       gradientUnits="userSpaceOnUse"
       x1="535.61847"
       y1="50.280807"
       x2="535.1142"
       y2="22.503313" />
    <linearGradient
       inkscape:collect="always"
       xlink:href="#linearGradient28034"
       id="linearGradient28032"
       x1="535.61847"
       y1="36.582775"
       x2="535.61847"
       y2="54.214352"
       gradientUnits="userSpaceOnUse" />
    <linearGradient
       inkscape:collect="always"
       xlink:href="#linearGradient26064"
       id="linearGradient28040"
       gradientUnits="userSpaceOnUse"
       x1="535.61847"
       y1="50.280807"
       x2="535.1142"
       y2="22.503313" />
    <linearGradient
       inkscape:collect="always"
       xlink:href="#linearGradient26072"
       id="linearGradient28042"
       gradientUnits="userSpaceOnUse"
       x1="535.61847"
       y1="57.996605"
       x2="535.61847"
       y2="35.682236" />
    <linearGradient
       id="linearGradient8647">
      <stop
         id="stop8649"
         offset="0"
         style="stop-color:#8fb1dc;stop-opacity:1;" />
      <stop
         id="stop8651"
         offset="1"
         style="stop-color:#3465a4;stop-opacity:1;" />
    </linearGradient>
    <radialGradient
       r="10.081216"
       fy="-3.4420195"
       fx="62.225391"
       cy="-3.4420195"
       cx="62.225391"
       gradientTransform="matrix(1,0,0,0.930233,0,-0.240141)"
       gradientUnits="userSpaceOnUse"
       id="radialGradient8748"
       xlink:href="#linearGradient8740"
       inkscape:collect="always" />
    <linearGradient
       id="linearGradient8740"
       inkscape:collect="always">
      <stop
         id="stop8742"
         offset="0"
         style="stop-color:#ffffff;stop-opacity:1;" />
      <stop
         id="stop8744"
         offset="1"
         style="stop-color:#ffffff;stop-opacity:0;" />
    </linearGradient>
    <radialGradient
       r="10.081216"
       fy="-3.4420195"
       fx="62.225391"
       cy="-3.4420195"
       cx="62.225391"
       gradientTransform="matrix(1,0,0,0.930233,0,-0.240141)"
       gradientUnits="userSpaceOnUse"
       id="radialGradient8750"
       xlink:href="#linearGradient8740"
       inkscape:collect="always" />
    <radialGradient
       r="10.081216"
       fy="-3.4420195"
       fx="62.225391"
       cy="-3.4420195"
       cx="62.225391"
       gradientTransform="matrix(1,0,0,0.930233,0,-0.240141)"
       gradientUnits="userSpaceOnUse"
       id="radialGradient8752"
       xlink:href="#linearGradient8740"
       inkscape:collect="always" />
    <radialGradient
       r="10.081216"
       fy="-3.4420195"
       fx="62.225391"
       cy="-3.4420195"
       cx="62.225391"
       gradientTransform="matrix(1,0,0,0.930233,0,-0.240141)"
       gradientUnits="userSpaceOnUse"
       id="radialGradient8756"
       xlink:href="#linearGradient8740"
       inkscape:collect="always" />
    <radialGradient
       r="10.081216"
       fy="-3.4420195"
       fx="62.225391"
       cy="-3.4420195"
       cx="62.225391"
       gradientTransform="matrix(1,0,0,0.930233,0,-0.240141)"
       gradientUnits="userSpaceOnUse"
       id="radialGradient8758"
       xlink:href="#linearGradient8740"
       inkscape:collect="always" />
    <radialGradient
       r="10.081216"
       fy="-3.4420195"
       fx="62.225391"
       cy="-3.4420195"
       cx="62.225391"
       gradientTransform="matrix(1,0,0,0.930233,0,-0.240141)"
       gradientUnits="userSpaceOnUse"
       id="radialGradient8760"
       xlink:href="#linearGradient8740"
       inkscape:collect="always" />
    <radialGradient
       r="10.081216"
       fy="-3.4420195"
       fx="62.225391"
       cy="-3.4420195"
       cx="62.225391"
       gradientTransform="matrix(1,0,0,0.930233,0,-0.240141)"
       gradientUnits="userSpaceOnUse"
       id="radialGradient8764"
       xlink:href="#linearGradient8740"
       inkscape:collect="always" />
    <radialGradient
       r="10.081216"
       fy="-3.4420195"
       fx="62.225391"
       cy="-3.4420195"
       cx="62.225391"
       gradientTransform="matrix(1,0,0,0.930233,0,-0.240141)"
       gradientUnits="userSpaceOnUse"
       id="radialGradient8766"
       xlink:href="#linearGradient8740"
       inkscape:collect="always" />
    <radialGradient
       r="10.081216"
       fy="-3.4420195"
       fx="62.225391"
       cy="-3.4420195"
       cx="62.225391"
       gradientTransform="matrix(1,0,0,0.930233,0,-0.240141)"
       gradientUnits="userSpaceOnUse"
       id="radialGradient8770"
       xlink:href="#linearGradient8740"
       inkscape:collect="always" />
    <radialGradient
       r="10.081216"
       fy="-3.4420195"
       fx="62.225391"
       cy="-3.4420195"
       cx="62.225391"
       gradientTransform="matrix(1,0,0,0.930233,0,-0.240141)"
       gradientUnits="userSpaceOnUse"
       id="radialGradient8772"
       xlink:href="#linearGradient8740"
       inkscape:collect="always" />
    <radialGradient
       r="10.081216"
       fy="-3.4420195"
       fx="62.225391"
       cy="-3.4420195"
       cx="62.225391"
       gradientTransform="matrix(1,0,0,0.930233,0,-0.240141)"
       gradientUnits="userSpaceOnUse"
       id="radialGradient8774"
       xlink:href="#linearGradient8740"
       inkscape:collect="always" />
    <radialGradient
       r="10.081216"
       fy="-3.4420195"
       fx="62.225391"
       cy="-3.4420195"
       cx="62.225391"
       gradientTransform="matrix(1,0,0,0.930233,0,-0.240141)"
       gradientUnits="userSpaceOnUse"
       id="radialGradient8778"
       xlink:href="#linearGradient8740"
       inkscape:collect="always" />
    <radialGradient
       r="10.081216"
       fy="-3.4420195"
       fx="62.225391"
       cy="-3.4420195"
       cx="62.225391"
       gradientTransform="matrix(1,0,0,0.930233,0,-0.240141)"
       gradientUnits="userSpaceOnUse"
       id="radialGradient8780"
       xlink:href="#linearGradient8740"
       inkscape:collect="always" />
    <radialGradient
       r="10.081216"
       fy="-3.4420195"
       fx="62.225391"
       cy="-3.4420195"
       cx="62.225391"
       gradientTransform="matrix(1,0,0,0.930233,0,-0.240141)"
       gradientUnits="userSpaceOnUse"
       id="radialGradient8782"
       xlink:href="#linearGradient8740"
       inkscape:collect="always" />
    <radialGradient
       r="10.081216"
       fy="-3.4420195"
       fx="62.225391"
       cy="-3.4420195"
       cx="62.225391"
       gradientTransform="matrix(1,0,0,0.930233,0,-0.240141)"
       gradientUnits="userSpaceOnUse"
       id="radialGradient8786"
       xlink:href="#linearGradient8740"
       inkscape:collect="always" />
    <radialGradient
       r="10.081216"
       fy="-3.4420195"
       fx="62.225391"
       cy="-3.4420195"
       cx="62.225391"
       gradientTransform="matrix(1,0,0,0.930233,0,-0.240141)"
       gradientUnits="userSpaceOnUse"
       id="radialGradient8788"
       xlink:href="#linearGradient8740"
       inkscape:collect="always" />
    <radialGradient
       r="10.081216"
       fy="-3.4420195"
       fx="62.225391"
       cy="-3.4420195"
       cx="62.225391"
       gradientTransform="matrix(1,0,0,0.930233,0,-0.240141)"
       gradientUnits="userSpaceOnUse"
       id="radialGradient8792"
       xlink:href="#linearGradient8740"
       inkscape:collect="always" />
    <radialGradient
       r="10.081216"
       fy="-3.4420195"
       fx="62.225391"
       cy="-3.4420195"
       cx="62.225391"
       gradientTransform="matrix(1,0,0,0.930233,0,-0.240141)"
       gradientUnits="userSpaceOnUse"
       id="radialGradient8794"
       xlink:href="#linearGradient8740"
       inkscape:collect="always" />
    <radialGradient
       r="10.081216"
       fy="-3.4420195"
       fx="62.225391"
       cy="-3.4420195"
       cx="62.225391"
       gradientTransform="matrix(1,0,0,0.930233,0,-0.240141)"
       gradientUnits="userSpaceOnUse"
       id="radialGradient8796"
       xlink:href="#linearGradient8740"
       inkscape:collect="always" />
    <radialGradient
       r="10.081216"
       fy="-3.4420195"
       fx="62.225391"
       cy="-3.4420195"
       cx="62.225391"
       gradientTransform="matrix(1,0,0,0.930233,0,-0.240141)"
       gradientUnits="userSpaceOnUse"
       id="radialGradient8798"
       xlink:href="#linearGradient8740"
       inkscape:collect="always" />
    <radialGradient
       r="10.081216"
       fy="-3.4420195"
       fx="62.225391"
       cy="-3.4420195"
       cx="62.225391"
       gradientTransform="matrix(1,0,0,0.930233,0,-0.240141)"
       gradientUnits="userSpaceOnUse"
       id="radialGradient8800"
       xlink:href="#linearGradient8740"
       inkscape:collect="always" />
    <radialGradient
       r="10.081216"
       fy="-3.4420195"
       fx="62.225391"
       cy="-3.4420195"
       cx="62.225391"
       gradientTransform="matrix(1,0,0,0.930233,0,-0.240141)"
       gradientUnits="userSpaceOnUse"
       id="radialGradient8802"
       xlink:href="#linearGradient8740"
       inkscape:collect="always" />
    <radialGradient
       r="10.081216"
       fy="-3.4420195"
       fx="62.225391"
       cy="-3.4420195"
       cx="62.225391"
       gradientTransform="matrix(1,0,0,0.930233,0,-0.240141)"
       gradientUnits="userSpaceOnUse"
       id="radialGradient8804"
       xlink:href="#linearGradient8740"
       inkscape:collect="always" />
    <radialGradient
       r="10.081216"
       fy="-3.4420195"
       fx="62.225391"
       cy="-3.4420195"
       cx="62.225391"
       gradientTransform="matrix(1,0,0,0.930233,0,-0.240141)"
       gradientUnits="userSpaceOnUse"
       id="radialGradient8806"
       xlink:href="#linearGradient8740"
       inkscape:collect="always" />
    <radialGradient
       r="10.081216"
       fy="-3.4420195"
       fx="62.225391"
       cy="-3.4420195"
       cx="62.225391"
       gradientTransform="matrix(1,0,0,0.930233,0,-0.240141)"
       gradientUnits="userSpaceOnUse"
       id="radialGradient8808"
       xlink:href="#linearGradient8740"
       inkscape:collect="always" />
    <radialGradient
       r="10.081216"
       fy="-3.4420195"
       fx="62.225391"
       cy="-3.4420195"
       cx="62.225391"
       gradientTransform="matrix(1,0,0,0.930233,0,-0.240141)"
       gradientUnits="userSpaceOnUse"
       id="radialGradient8810"
       xlink:href="#linearGradient8740"
       inkscape:collect="always" />
    <linearGradient
       id="linearGradient8924">
      <stop
         style="stop-color:#cee14b"
         offset="0"
         id="stop8926" />
      <stop
         style="stop-color:#9db029"
         offset="1"
         id="stop8928" />
    </linearGradient>
    <radialGradient
       r="10.081216"
       fy="-3.4420195"
       fx="62.225391"
       cy="-3.4420195"
       cx="62.225391"
       gradientTransform="matrix(1,0,0,0.930233,0,-0.240141)"
       gradientUnits="userSpaceOnUse"
       id="radialGradient8812"
       xlink:href="#linearGradient8740"
       inkscape:collect="always" />
    <linearGradient
       id="linearGradient8930">
      <stop
         style="stop-color:#cee14b"
         offset="0"
         id="stop8932" />
      <stop
         style="stop-color:#9db029"
         offset="1"
         id="stop8934" />
    </linearGradient>
    <radialGradient
       r="10.081216"
       fy="-3.4420195"
       fx="62.225391"
       cy="-3.4420195"
       cx="62.225391"
       gradientTransform="matrix(1,0,0,0.930233,0,-0.240141)"
       gradientUnits="userSpaceOnUse"
       id="radialGradient8816"
       xlink:href="#linearGradient8740"
       inkscape:collect="always" />
    <linearGradient
       id="linearGradient8912">
      <stop
         id="stop8914"
         offset="0"
         style="stop-color:#cee14b" />
      <stop
         id="stop8916"
         offset="1"
         style="stop-color:#9db029" />
    </linearGradient>
    <radialGradient
       r="10.081216"
       fy="-3.4420195"
       fx="62.225391"
       cy="-3.4420195"
       cx="62.225391"
       gradientTransform="matrix(1,0,0,0.930233,0,-0.240141)"
       gradientUnits="userSpaceOnUse"
       id="radialGradient8820"
       xlink:href="#linearGradient8740"
       inkscape:collect="always" />
    <linearGradient
       id="linearGradient8918">
      <stop
         style="stop-color:#cee14b"
         offset="0"
         id="stop8920" />
      <stop
         style="stop-color:#9db029"
         offset="1"
         id="stop8922" />
    </linearGradient>
    <radialGradient
       r="10.081216"
       fy="-3.4420195"
       fx="62.225391"
       cy="-3.4420195"
       cx="62.225391"
       gradientTransform="matrix(1,0,0,0.930233,0,-0.240141)"
       gradientUnits="userSpaceOnUse"
       id="radialGradient8824"
       xlink:href="#linearGradient8740"
       inkscape:collect="always" />
    <linearGradient
       id="linearGradient6621">
      <stop
         style="stop-color:#f5a108;stop-opacity:0.0000000;"
         offset="0.0000000"
         id="stop6622" />
      <stop
         style="stop-color:#fefdc3;stop-opacity:0.74251497;"
         offset="1.0000000"
         id="stop6623" />
    </linearGradient>
    <linearGradient
       inkscape:collect="always"
       xlink:href="#linearGradient6621"
       id="linearGradient7881"
       x1="22.819513"
       y1="28.829224"
       x2="12.849945"
       y2="12.239423"
       gradientTransform="matrix(1.059395,0,0,0.544945,-15.655091,-70.449043)"
       gradientUnits="userSpaceOnUse" />
    <linearGradient
       inkscape:collect="always"
       id="linearGradient6439">
      <stop
         style="stop-color:#eeeeec;stop-opacity:1;"
         offset="0"
         id="stop6441" />
      <stop
         style="stop-color:#eeeeec;stop-opacity:0;"
         offset="1"
         id="stop6443" />
    </linearGradient>
    <linearGradient
       id="linearGradient6120">
      <stop
         style="stop-color:#2e3436;stop-opacity:0;"
         offset="0"
         id="stop6122" />
      <stop
         id="stop6128"
         offset="0.85294116"
         style="stop-color:#2e3436;stop-opacity:0.49803922;" />
      <stop
         style="stop-color:#2e3436;stop-opacity:1;"
         offset="1"
         id="stop6124" />
    </linearGradient>
    <radialGradient
       inkscape:collect="always"
       xlink:href="#linearGradient6120"
       id="radialGradient6126"
       cx="122.7748"
       cy="122.01913"
       fx="122.7748"
       fy="122.01913"
       r="77.251411"
       gradientUnits="userSpaceOnUse"
       gradientTransform="matrix(1.0292093,1.075662e-2,-1.0237118e-2,0.9759394,-2.2547647,1.7080289)" />
    <linearGradient
       inkscape:collect="always"
       id="linearGradient5009">
      <stop
         style="stop-color:#2e3436;stop-opacity:1;"
         offset="0"
         id="stop5011" />
      <stop
         style="stop-color:#2e3436;stop-opacity:0;"
         offset="1"
         id="stop5013" />
    </linearGradient>
    <linearGradient
       id="linearGradient3718">
      <stop
         id="stop3720"
         offset="0"
         style="stop-color:#ffffff;stop-opacity:1;" />
      <stop
         id="stop3722"
         offset="1"
         style="stop-color:#ffffff;stop-opacity:0;" />
    </linearGradient>
    <linearGradient
       inkscape:collect="always"
       id="linearGradient20125">
      <stop
         style="stop-color:#000000;stop-opacity:1;"
         offset="0"
         id="stop20127" />
      <stop
         style="stop-color:#000000;stop-opacity:0;"
         offset="1"
         id="stop20129" />
    </linearGradient>
    <linearGradient
       id="linearGradient16727">
      <stop
         style="stop-color:#000000;stop-opacity:1;"
         offset="0"
         id="stop16729" />
      <stop
         style="stop-color:#2e3436;stop-opacity:1;"
         offset="1"
         id="stop16731" />
    </linearGradient>
    <linearGradient
       id="linearGradient10800">
      <stop
         style="stop-color:#343434;stop-opacity:1;"
         offset="0"
         id="stop10802" />
      <stop
         style="stop-color:#ce5c00;stop-opacity:1;"
         offset="1"
         id="stop10804" />
    </linearGradient>
    <linearGradient
       id="linearGradient7862">
      <stop
         style="stop-color:#ffffff;stop-opacity:1;"
         offset="0"
         id="stop7864" />
      <stop
         style="stop-color:#ffffff;stop-opacity:0.48369566;"
         offset="1"
         id="stop7866" />
    </linearGradient>
    <linearGradient
       id="linearGradient6878">
      <stop
         style="stop-color:#fcaf3e;stop-opacity:1;"
         offset="0"
         id="stop6880" />
      <stop
         style="stop-color:#f57900;stop-opacity:1;"
         offset="1"
         id="stop6882" />
    </linearGradient>
    <linearGradient
       inkscape:collect="always"
       id="linearGradient9617">
      <stop
         style="stop-color:#ffffff;stop-opacity:1;"
         offset="0"
         id="stop9619" />
      <stop
         style="stop-color:#ffffff;stop-opacity:0;"
         offset="1"
         id="stop9621" />
    </linearGradient>
    <linearGradient
       id="linearGradient7627">
      <stop
         style="stop-color:#2e3436;stop-opacity:1;"
         offset="0"
         id="stop7629" />
      <stop
         style="stop-color:#000000;stop-opacity:1;"
         offset="1"
         id="stop7631" />
    </linearGradient>
    <linearGradient
       id="linearGradient3821">
      <stop
         style="stop-color:#75796d;stop-opacity:1;"
         offset="0"
         id="stop3823" />
      <stop
         style="stop-color:#000000;stop-opacity:1;"
         offset="1"
         id="stop3825" />
    </linearGradient>
    <linearGradient
       inkscape:collect="always"
       xlink:href="#linearGradient9617"
       id="linearGradient19105"
       gradientUnits="userSpaceOnUse"
       gradientTransform="matrix(0.6289019,0.6289019,-0.6289019,0.6289019,23.518554,-6.5382394)"
       x1="10.85426"
       y1="9.0594749"
       x2="29.972343"
       y2="12.551182" />
    <radialGradient
       inkscape:collect="always"
       xlink:href="#linearGradient3821"
       id="radialGradient19108"
       gradientUnits="userSpaceOnUse"
       gradientTransform="matrix(0.4788657,0.4788657,-0.3990012,0.3990012,24.088617,0.5503937)"
       cx="22.320988"
       cy="8.7810698"
       fx="22.320988"
       fy="8.7810698"
       r="5.8765426" />
    <linearGradient
       inkscape:collect="always"
       xlink:href="#linearGradient10800"
       id="linearGradient19111"
       gradientUnits="userSpaceOnUse"
       gradientTransform="matrix(0.6289019,0.6289019,-0.6289019,0.6289019,23.518554,-6.5382394)"
       x1="13.675855"
       y1="12.46873"
       x2="13.675855"
       y2="44.6875" />
    <linearGradient
       inkscape:collect="always"
       xlink:href="#linearGradient10800"
       id="linearGradient19114"
       gradientUnits="userSpaceOnUse"
       gradientTransform="matrix(0.6289019,0.6289019,-0.6289019,0.6289019,23.518554,-6.5382394)"
       x1="23.6875"
       y1="12.46873"
       x2="23.6875"
       y2="44.6875" />
    <radialGradient
       inkscape:collect="always"
       xlink:href="#linearGradient7862"
       id="radialGradient19117"
       gradientUnits="userSpaceOnUse"
       gradientTransform="matrix(2.0832536,1.0260687,-2.6096401,5.1892494,53.7775,-140.01755)"
       cx="17.97797"
       cy="26.878088"
       fx="17.97797"
       fy="26.878088"
       r="4.4293375" />
    <radialGradient
       inkscape:collect="always"
       xlink:href="#linearGradient7862"
       id="radialGradient19120"
       gradientUnits="userSpaceOnUse"
       gradientTransform="matrix(3.4740677,1.6118146,-2.9811793,6.0721624,43.928509,-157.69744)"
       cx="15.165148"
       cy="24.656099"
       fx="15.165148"
       fy="24.656099"
       r="4.4293375" />
    <radialGradient
       inkscape:collect="always"
       xlink:href="#linearGradient3718"
       id="radialGradient19123"
       gradientUnits="userSpaceOnUse"
       gradientTransform="matrix(1.926452,0.5209552,-0.7405281,2.6859944,14.628716,-31.340181)"
       cx="9.4155846"
       cy="11.496181"
       fx="9.4155846"
       fy="11.496181"
       r="9.890625" />
    <radialGradient
       inkscape:collect="always"
       xlink:href="#linearGradient6878"
       id="radialGradient19126"
       gradientUnits="userSpaceOnUse"
       gradientTransform="matrix(-0.2765445,-0.2765445,1.6429885,-1.6429885,-14.065617,74.833681)"
       cx="24.363298"
       cy="28.883881"
       fx="24.363298"
       fy="28.883881"
       r="9.90625" />
    <radialGradient
       inkscape:collect="always"
       xlink:href="#linearGradient6878"
       id="radialGradient19129"
       gradientUnits="userSpaceOnUse"
       gradientTransform="matrix(0.2861102,0.2861102,1.6429885,-1.6429885,-27.607957,61.291341)"
       cx="24.363298"
       cy="28.883881"
       fx="24.363298"
       fy="28.883881"
       r="9.90625" />
    <linearGradient
       inkscape:collect="always"
       xlink:href="#linearGradient9617"
       id="linearGradient19132"
       gradientUnits="userSpaceOnUse"
       gradientTransform="matrix(0.7325847,0.7325847,-0.5450179,0.5450179,17.588346,-5.1278494)"
       x1="30.365795"
       y1="31.133732"
       x2="30.365795"
       y2="49.425411" />
    <radialGradient
       inkscape:collect="always"
       xlink:href="#linearGradient3821"
       id="radialGradient19135"
       gradientUnits="userSpaceOnUse"
       gradientTransform="matrix(0.8740619,0.8740619,-1.6278256,1.6278256,43.228958,-37.559368)"
       cx="24"
       cy="28.363541"
       fx="24"
       fy="28.363541"
       r="6.7860088" />
    <radialGradient
       inkscape:collect="always"
       xlink:href="#linearGradient16727"
       id="radialGradient19138"
       gradientUnits="userSpaceOnUse"
       gradientTransform="matrix(0.6289019,0.6289019,-0.5527975,0.5527975,21.306294,-4.3259797)"
       cx="24.703125"
       cy="29.068731"
       fx="24.703125"
       fy="29.068731"
       r="18.515625" />
    <radialGradient
       inkscape:collect="always"
       xlink:href="#linearGradient20125"
       id="radialGradient20131"
       cx="21.991045"
       cy="26.89328"
       fx="21.991045"
       fy="26.89328"
       r="15.02314"
       gradientTransform="matrix(0.5308558,0.4952531,-0.635795,0.6815008,27.023251,-0.6678098)"
       gradientUnits="userSpaceOnUse" />
    <linearGradient
       inkscape:collect="always"
       xlink:href="#linearGradient9617"
       id="linearGradient3739"
       gradientUnits="userSpaceOnUse"
       gradientTransform="matrix(0.6289019,0.6289019,-0.6289019,0.6289019,23.518554,-6.5382394)"
       x1="10.85426"
       y1="9.0594749"
       x2="29.972343"
       y2="12.551182" />
    <radialGradient
       inkscape:collect="always"
       xlink:href="#linearGradient3821"
       id="radialGradient3742"
       gradientUnits="userSpaceOnUse"
       gradientTransform="matrix(0.4332708,0.4332712,-0.3610105,0.3610108,25.19497,2.8460138)"
       cx="22.320988"
       cy="8.7810698"
       fx="22.320988"
       fy="8.7810698"
       r="5.8765426" />
    <linearGradient
       inkscape:collect="always"
       xlink:href="#linearGradient10800"
       id="linearGradient3745"
       gradientUnits="userSpaceOnUse"
       gradientTransform="matrix(0.6289019,0.6289019,-0.6289019,0.6289019,23.518554,-6.5382394)"
       x1="13.675855"
       y1="12.46873"
       x2="13.675855"
       y2="44.6875" />
    <linearGradient
       inkscape:collect="always"
       xlink:href="#linearGradient10800"
       id="linearGradient3748"
       gradientUnits="userSpaceOnUse"
       gradientTransform="matrix(0.6289019,0.6289019,-0.6289019,0.6289019,23.518554,-6.5382394)"
       x1="23.6875"
       y1="12.46873"
       x2="23.6875"
       y2="44.6875" />
    <radialGradient
       inkscape:collect="always"
       xlink:href="#linearGradient7862"
       id="radialGradient3751"
       gradientUnits="userSpaceOnUse"
       gradientTransform="matrix(2.0832536,1.0260687,-2.6096401,5.1892494,53.7775,-140.01755)"
       cx="17.97797"
       cy="26.878088"
       fx="17.97797"
       fy="26.878088"
       r="4.4293375" />
    <radialGradient
       inkscape:collect="always"
       xlink:href="#linearGradient7862"
       id="radialGradient3754"
       gradientUnits="userSpaceOnUse"
       gradientTransform="matrix(3.4740677,1.6118146,-2.9811793,6.0721624,43.928509,-157.69744)"
       cx="15.165148"
       cy="24.656099"
       fx="15.165148"
       fy="24.656099"
       r="4.4293375" />
    <radialGradient
       inkscape:collect="always"
       xlink:href="#linearGradient3718"
       id="radialGradient3757"
       gradientUnits="userSpaceOnUse"
       gradientTransform="matrix(1.7430258,0.4713531,-0.6700192,2.4302509,16.57022,-25.942573)"
       cx="9.4155846"
       cy="11.496181"
       fx="9.4155846"
       fy="11.496181"
       r="9.890625" />
    <radialGradient
       inkscape:collect="always"
       xlink:href="#linearGradient6878"
       id="radialGradient3760"
       gradientUnits="userSpaceOnUse"
       gradientTransform="matrix(-0.2502135,-0.2502136,1.4865523,-1.4865534,-9.3264282,70.056511)"
       cx="24.363298"
       cy="28.883881"
       fx="24.363298"
       fy="28.883881"
       r="9.90625" />
    <radialGradient
       inkscape:collect="always"
       xlink:href="#linearGradient6878"
       id="radialGradient3763"
       gradientUnits="userSpaceOnUse"
       gradientTransform="matrix(0.2588683,0.2588686,1.4865523,-1.4865534,-21.579342,57.803588)"
       cx="24.363298"
       cy="28.883881"
       fx="24.363298"
       fy="28.883881"
       r="9.90625" />
    <linearGradient
       inkscape:collect="always"
       xlink:href="#linearGradient9617"
       id="linearGradient3766"
       gradientUnits="userSpaceOnUse"
       gradientTransform="matrix(0.7325847,0.7325847,-0.5450179,0.5450179,17.588346,-5.1278494)"
       x1="30.365795"
       y1="31.133732"
       x2="30.365795"
       y2="49.425411" />
    <radialGradient
       inkscape:collect="always"
       xlink:href="#linearGradient3821"
       id="radialGradient3769"
       gradientUnits="userSpaceOnUse"
       gradientTransform="matrix(0.7908385,0.7908393,-1.4728331,1.4728344,42.512875,-31.635178)"
       cx="24"
       cy="28.363541"
       fx="24"
       fy="28.363541"
       r="6.7860088" />
    <radialGradient
       inkscape:collect="always"
       xlink:href="#linearGradient16727"
       id="radialGradient3772"
       gradientUnits="userSpaceOnUse"
       gradientTransform="matrix(0.5690214,0.5690217,-0.5001632,0.5001636,22.677564,-1.5660619)"
       cx="24.703125"
       cy="29.068731"
       fx="24.703125"
       fy="29.068731"
       r="18.515625" />
    <radialGradient
       inkscape:collect="always"
       xlink:href="#linearGradient20125"
       id="radialGradient3775"
       gradientUnits="userSpaceOnUse"
       gradientTransform="matrix(0.4803107,0.4480982,-0.5752582,0.6166125,27.850185,1.7437999)"
       cx="21.991045"
       cy="26.89328"
       fx="21.991045"
       fy="26.89328"
       r="15.02314" />
    <radialGradient
       inkscape:collect="always"
       xlink:href="#linearGradient6878"
       id="radialGradient5000"
       gradientUnits="userSpaceOnUse"
       gradientTransform="matrix(-0.2502135,-0.2502136,1.4865523,-1.4865534,-9.2480142,69.954456)"
       cx="24.363298"
       cy="28.883881"
       fx="24.363298"
       fy="28.883881"
       r="9.90625" />
    <radialGradient
       inkscape:collect="always"
       xlink:href="#linearGradient6878"
       id="radialGradient5004"
       gradientUnits="userSpaceOnUse"
       gradientTransform="matrix(-0.2502135,-0.2502136,1.4865523,-1.4865534,-8.0677761,71.069125)"
       cx="24.363298"
       cy="28.883881"
       fx="24.363298"
       fy="28.883881"
       r="9.90625" />
    <radialGradient
       inkscape:collect="always"
       xlink:href="#linearGradient5009"
       id="radialGradient5015"
       cx="3.8721294"
       cy="22.949808"
       fx="3.8721294"
       fy="22.949808"
       r="8.844265"
       gradientTransform="matrix(0.5862748,0.5842933,-1.5339663,1.5391674,43.72963,-19.882281)"
       gradientUnits="userSpaceOnUse" />
    <radialGradient
       inkscape:collect="always"
       xlink:href="#linearGradient6878"
       id="radialGradient5356"
       gradientUnits="userSpaceOnUse"
       gradientTransform="matrix(0.3660953,2.1213203e-7,-7.7781746e-7,-2.1023032,-33.454537,76.547862)"
       cx="24.363298"
       cy="28.883881"
       fx="24.363298"
       fy="28.883881"
       r="9.90625" />
    <radialGradient
       inkscape:collect="always"
       xlink:href="#linearGradient6878"
       id="radialGradient5358"
       gradientUnits="userSpaceOnUse"
       gradientTransform="matrix(-0.3538554,-7.0710678e-8,-7.7781746e-7,-2.1023032,-16.126294,76.547868)"
       cx="24.363298"
       cy="28.883881"
       fx="24.363298"
       fy="28.883881"
       r="9.90625" />
    <radialGradient
       inkscape:collect="always"
       xlink:href="#linearGradient6878"
       id="radialGradient5370"
       gradientUnits="userSpaceOnUse"
       gradientTransform="matrix(-0.3538554,-7.0710678e-8,-7.7781746e-7,-2.1023032,-16.126294,76.547868)"
       cx="24.363298"
       cy="28.883881"
       fx="24.363298"
       fy="28.883881"
       r="9.90625" />
    <radialGradient
       inkscape:collect="always"
       xlink:href="#linearGradient6878"
       id="radialGradient5373"
       gradientUnits="userSpaceOnUse"
       gradientTransform="matrix(0.3660953,2.1213203e-7,-7.7781746e-7,-2.1023032,-33.454537,76.547862)"
       cx="24.363298"
       cy="28.883881"
       fx="24.363298"
       fy="28.883881"
       r="9.90625" />
    <radialGradient
       inkscape:collect="always"
       xlink:href="#linearGradient6878"
       id="radialGradient5382"
       gradientUnits="userSpaceOnUse"
       gradientTransform="matrix(-0.2502135,-0.2502136,1.4865523,-1.4865534,-9.3264282,70.056511)"
       cx="24.363298"
       cy="28.883881"
       fx="24.363298"
       fy="28.883881"
       r="9.90625" />
    <radialGradient
       inkscape:collect="always"
       xlink:href="#linearGradient6878"
       id="radialGradient5385"
       gradientUnits="userSpaceOnUse"
       gradientTransform="matrix(0.2588683,0.2588686,1.4865523,-1.4865534,-11.750146,61.744539)"
       cx="24.363298"
       cy="28.883881"
       fx="24.363298"
       fy="28.883881"
       r="9.90625" />
    <radialGradient
       inkscape:collect="always"
       xlink:href="#linearGradient6878"
       id="radialGradient5418"
       gradientUnits="userSpaceOnUse"
       gradientTransform="matrix(0.3660953,2.1213203e-7,-7.7781746e-7,-2.1023032,-51.757338,74.292232)"
       cx="24.363298"
       cy="28.883881"
       fx="24.363298"
       fy="28.883881"
       r="9.90625" />
    <radialGradient
       inkscape:collect="always"
       xlink:href="#linearGradient6878"
       id="radialGradient5420"
       gradientUnits="userSpaceOnUse"
       gradientTransform="matrix(-0.3538554,-7.0710678e-8,-7.7781746e-7,-2.1023032,-34.429094,74.292238)"
       cx="24.363298"
       cy="28.883881"
       fx="24.363298"
       fy="28.883881"
       r="9.90625" />
    <radialGradient
       inkscape:collect="always"
       xlink:href="#linearGradient6439"
       id="radialGradient6445"
       cx="-43.274357"
       cy="19.408314"
       fx="-43.274357"
       fy="19.408314"
       r="7.1942062"
       gradientTransform="matrix(1.0652811,6.4447066e-3,-9.7623556e-3,1.6135965,32.687512,-16.438202)"
       gradientUnits="userSpaceOnUse" />
    <linearGradient
       inkscape:collect="always"
       xlink:href="#linearGradient18146"
       id="linearGradient5373"
       gradientUnits="userSpaceOnUse"
       x1="137.131"
       y1="791.1806"
       x2="232.8185"
       y2="599.77435" />
    <linearGradient
       inkscape:collect="always"
       xlink:href="#linearGradient18170"
       id="linearGradient5375"
       gradientUnits="userSpaceOnUse"
       gradientTransform="matrix(0,1,-1,0,1049.4865,557.85558)"
       x1="228.84381"
       y1="695.68524"
       x2="45.78125"
       y2="787.24554" />
    <linearGradient
       inkscape:collect="always"
       xlink:href="#linearGradient18239"
       id="linearGradient5377"
       gradientUnits="userSpaceOnUse"
       gradientTransform="matrix(1,0,0,-1,0,1608.2862)"
       x1="228.84381"
       y1="604.125"
       x2="137.31253"
       y2="787.24548" />
    <linearGradient
       inkscape:collect="always"
       xlink:href="#linearGradient18245"
       id="linearGradient5379"
       gradientUnits="userSpaceOnUse"
       gradientTransform="matrix(0,-1,-1,0,1049.4865,1050.4306)"
       x1="45.7812"
       y1="787.24554"
       x2="228.8438"
       y2="695.68524" />
    <linearGradient
       inkscape:collect="always"
       xlink:href="#linearGradient14119"
       id="linearGradient5429"
       gradientUnits="userSpaceOnUse"
       x1="245.06345"
       y1="572.54871"
       x2="245.06345"
       y2="1034.8357" />
    <linearGradient
       inkscape:collect="always"
       xlink:href="#linearGradient28044"
       id="linearGradient5431"
       gradientUnits="userSpaceOnUse"
       x1="-110.9434"
       y1="137.65195"
       x2="-110.9434"
       y2="250.64989" />
    <linearGradient
       inkscape:collect="always"
       xlink:href="#linearGradient14127"
       id="linearGradient5433"
       gradientUnits="userSpaceOnUse"
       x1="-110.9434"
       y1="250.64989"
       x2="-110.9434"
       y2="137.65195" />
    <linearGradient
       inkscape:collect="always"
       xlink:href="#linearGradient23127"
       id="linearGradient5435"
       gradientUnits="userSpaceOnUse"
       x1="-110.9434"
       y1="137.65195"
       x2="-110.9434"
       y2="180.60576" />
    <linearGradient
       inkscape:collect="always"
       xlink:href="#linearGradient14119"
       id="linearGradient2796"
       gradientUnits="userSpaceOnUse"
       x1="245.06345"
       y1="572.54871"
       x2="245.06345"
       y2="1034.8357" />
    <linearGradient
       inkscape:collect="always"
       xlink:href="#linearGradient28044"
       id="linearGradient2798"
       gradientUnits="userSpaceOnUse"
       x1="-110.9434"
       y1="137.65195"
       x2="-110.9434"
       y2="250.64989" />
    <linearGradient
       inkscape:collect="always"
       xlink:href="#linearGradient14127"
       id="linearGradient2800"
       gradientUnits="userSpaceOnUse"
       x1="-110.9434"
       y1="250.64989"
       x2="-110.9434"
       y2="137.65195" />
    <linearGradient
       inkscape:collect="always"
       xlink:href="#linearGradient14119"
       id="linearGradient2482"
       gradientUnits="userSpaceOnUse"
       x1="245.06345"
       y1="572.54871"
       x2="245.06345"
       y2="1034.8357" />
    <linearGradient
       inkscape:collect="always"
       xlink:href="#linearGradient28044"
       id="linearGradient2484"
       gradientUnits="userSpaceOnUse"
       x1="-110.9434"
       y1="137.65195"
       x2="-110.9434"
       y2="250.64989" />
    <linearGradient
       inkscape:collect="always"
       xlink:href="#linearGradient14127"
       id="linearGradient2486"
       gradientUnits="userSpaceOnUse"
       x1="-110.9434"
       y1="250.64989"
       x2="-110.9434"
       y2="137.65195" />
    <linearGradient
       inkscape:collect="always"
       xlink:href="#linearGradient28044"
       id="linearGradient3529"
       gradientUnits="userSpaceOnUse"
       x1="-110.9434"
       y1="137.65195"
       x2="-110.9434"
       y2="250.64989" />
    <linearGradient
       inkscape:collect="always"
       xlink:href="#linearGradient14127"
       id="linearGradient3531"
       gradientUnits="userSpaceOnUse"
       x1="-110.9434"
       y1="250.64989"
       x2="-110.9434"
       y2="137.65195" />
    <linearGradient
       inkscape:collect="always"
       xlink:href="#linearGradient23127"
       id="linearGradient3533"
       gradientUnits="userSpaceOnUse"
       x1="-110.9434"
       y1="137.65195"
       x2="-110.9434"
       y2="180.60576" />
    <linearGradient
       inkscape:collect="always"
       xlink:href="#linearGradient18146"
       id="linearGradient4635"
       gradientUnits="userSpaceOnUse"
       x1="137.131"
       y1="791.1806"
       x2="232.8185"
       y2="599.77435" />
    <linearGradient
       inkscape:collect="always"
       xlink:href="#linearGradient18170"
       id="linearGradient4637"
       gradientUnits="userSpaceOnUse"
       gradientTransform="matrix(0,1,-1,0,1049.4865,557.85558)"
       x1="228.84381"
       y1="695.68524"
       x2="45.78125"
       y2="787.24554" />
    <linearGradient
       inkscape:collect="always"
       xlink:href="#linearGradient18239"
       id="linearGradient4639"
       gradientUnits="userSpaceOnUse"
       gradientTransform="matrix(1,0,0,-1,0,1608.2862)"
       x1="45.78125"
       y1="604.125"
       x2="228.84381"
       y2="787.24548" />
    <linearGradient
       inkscape:collect="always"
       xlink:href="#linearGradient18245"
       id="linearGradient4641"
       gradientUnits="userSpaceOnUse"
       gradientTransform="matrix(0,-1,-1,0,1049.4865,1050.4306)"
       x1="45.7812"
       y1="604.125"
       x2="228.8438"
       y2="787.24554" />
    <linearGradient
       inkscape:collect="always"
       xlink:href="#linearGradient5660"
       id="linearGradient5666"
       x1="46.234375"
       y1="864.11218"
       x2="12.078125"
       y2="898.51843"
       gradientUnits="userSpaceOnUse" />
    <linearGradient
       inkscape:collect="always"
       xlink:href="#linearGradient5668"
       id="linearGradient5674"
       x1="53.765625"
       y1="864.01843"
       x2="87.921875"
       y2="898.39343"
       gradientUnits="userSpaceOnUse" />
    <linearGradient
       inkscape:collect="always"
       xlink:href="#linearGradient5676"
       id="linearGradient5682"
       x1="46.234375"
       y1="906.17468"
       x2="12.078125"
       y2="940.58093"
       gradientUnits="userSpaceOnUse" />
    <linearGradient
       inkscape:collect="always"
       xlink:href="#linearGradient5684"
       id="linearGradient5690"
       x1="53.765625"
       y1="906.26843"
       x2="87.921875"
       y2="940.70593"
       gradientUnits="userSpaceOnUse" />
    <linearGradient
       inkscape:collect="always"
       xlink:href="#linearGradient14119"
       id="linearGradient2413"
       gradientUnits="userSpaceOnUse"
       gradientTransform="matrix(0.1934518,0,0,0.1946842,-56.69816,743.80828)"
       x1="245.06345"
       y1="572.54871"
       x2="245.06345"
       y2="1034.8357" />
    <linearGradient
       inkscape:collect="always"
       xlink:href="#linearGradient2419"
       id="linearGradient2417"
       gradientUnits="userSpaceOnUse"
       x1="-110.9434"
       y1="137.65195"
       x2="-110.9434"
       y2="250.64989" />
  </defs>
  <sodipodi:namedview
     id="base"
     pagecolor="#ffffff"
     bordercolor="#666666"
     borderopacity="1.0"
     gridtolerance="10000"
     guidetolerance="10"
     objecttolerance="10"
     inkscape:pageopacity="0.0"
     inkscape:pageshadow="2"
     inkscape:zoom="4.79"
     inkscape:cx="62.863219"
     inkscape:cy="54.150156"
     inkscape:document-units="px"
     inkscape:current-layer="layer1"
     showguides="true"
     inkscape:guide-bbox="true"
     inkscape:window-width="1024"
     inkscape:window-height="695"
     inkscape:window-x="0"
     inkscape:window-y="25"
     width="100px"
     height="100px" />
  <metadata
     id="metadata7">
    <rdf:RDF>
      <cc:Work
         rdf:about="">
        <dc:format>image/svg+xml</dc:format>
        <dc:type
           rdf:resource="http://purl.org/dc/dcmitype/StillImage" />
      </cc:Work>
    </rdf:RDF>
  </metadata>
  <g
     inkscape:label="Layer 1"
     inkscape:groupmode="layer"
     id="layer1"
     transform="translate(3.7764491e-7,-852.36216)">
    <g
       id="background">
      <path
         sodipodi:type="arc"
         style="fill:url(#linearGradient2417);fill-opacity:1.0;stroke:none;stroke-width:4;stroke-linecap:butt;stroke-linejoin:round;stroke-miterlimit:4;stroke-dasharray:none;stroke-opacity:1"
         id="path2415"
         sodipodi:cx="-110.9434"
         sodipodi:cy="194.15094"
         sodipodi:rx="56.498951"
         sodipodi:ry="56.498951"
         d="M -111.40699,250.64799 A 56.498951,56.498951 0 1 1 -110.9434,250.64989"
         transform="matrix(0.7986119,0,0,0.8036996,138.60072,746.32315)"
         sodipodi:start="1.5790018"
         sodipodi:end="7.8539816"
         sodipodi:open="true" />
      <path
         sodipodi:open="true"
         sodipodi:end="7.8539816"
         sodipodi:start="1.5790018"
         transform="matrix(0.7729101,0,0,0.777834,135.74927,751.34497)"
         d="M -111.40699,250.64799 A 56.498951,56.498951 0 1 1 -110.9434,250.64989"
         sodipodi:ry="56.498951"
         sodipodi:rx="56.498951"
         sodipodi:cy="194.15094"
         sodipodi:cx="-110.9434"
         id="path19230"
         style="fill:url(#linearGradient3529);fill-opacity:1;stroke:none;stroke-width:4;stroke-linecap:butt;stroke-linejoin:round;stroke-miterlimit:4;stroke-dasharray:none;stroke-opacity:1"
         sodipodi:type="arc" />
      <path
         sodipodi:type="arc"
         style="fill:url(#linearGradient3531);fill-opacity:1;stroke:none;stroke-width:4;stroke-linecap:butt;stroke-linejoin:round;stroke-miterlimit:4;stroke-dasharray:none;stroke-opacity:1"
         id="path14115"
         sodipodi:cx="-110.9434"
         sodipodi:cy="194.15094"
         sodipodi:rx="56.498951"
         sodipodi:ry="56.498951"
         d="M -111.40699,250.64799 A 56.498951,56.498951 0 1 1 -110.9434,250.64989"
         transform="matrix(0.7620356,0,0,0.7668902,134.54282,753.46972)"
         sodipodi:start="1.5790018"
         sodipodi:end="7.8539816"
         sodipodi:open="true" />
      <path
         transform="translate(-75.046551,-8.7902e-2)"
         sodipodi:type="inkscape:offset"
         inkscape:radius="0.66018325"
         inkscape:original="M 127.5 862.5625 L 127.5 883.03125 C 136.13848 884.28355 142.9788 891.14288 144.21875 899.8125 L 164.53125 899.8125 C 163.14645 879.91746 147.33311 863.96482 127.5 862.5625 z M 122.59375 862.65625 C 102.82464 864.04988 86.955935 879.97805 85.5625 899.9375 L 105.875 899.9375 C 107.1194 891.24399 113.97901 884.37286 122.59375 883.125 L 122.59375 862.65625 z M 85.5625 904.96875 C 86.955935 924.92818 102.82464 940.85639 122.59375 942.25 L 122.59375 921.78125 C 113.97901 920.5334 107.1194 913.66225 105.875 904.96875 L 85.5625 904.96875 z M 144.21875 905.0625 C 142.9788 913.73211 136.13848 920.62268 127.5 921.875 L 127.5 942.34375 C 147.33311 940.94141 163.14645 924.95754 164.53125 905.0625 L 144.21875 905.0625 z "
         style="fill:#1e1e1e;fill-opacity:1;stroke:none;stroke-width:4;stroke-linecap:butt;stroke-linejoin:round;stroke-miterlimit:4;stroke-opacity:1"
         id="path3650"
         d="M 127.34375,861.90625 C 127.0441,861.98113 126.83641,862.25373 126.84375,862.5625 L 126.84375,883.03125 C 126.84212,883.35939 127.08172,883.63892 127.40625,883.6875 C 135.75496,884.89779 142.36382,891.52518 143.5625,899.90625 C 143.61108,900.23078 143.89061,900.47038 144.21875,900.46875 L 164.53125,900.46875 C 164.71049,900.46782 164.88165,900.39405 165.00541,900.2644 C 165.12917,900.13474 165.1949,899.96034 165.1875,899.78125 C 163.78022,879.5633 147.6911,863.33167 127.53125,861.90625 C 127.46907,861.89733 127.40593,861.89733 127.34375,861.90625 L 127.34375,861.90625 z M 122.5625,862 C 102.46613,863.4167 86.322237,879.62377 84.90625,899.90625 C 84.89885,900.08534 84.964579,900.25974 85.088341,900.3894 C 85.212103,900.51905 85.383261,900.59282 85.5625,900.59375 L 105.875,900.59375 C 106.20314,900.59538 106.48267,900.35578 106.53125,900.03125 C 107.73434,891.62631 114.36383,884.98695 122.6875,883.78125 C 123.01203,883.73267 123.25163,883.45314 123.25,883.125 L 123.25,862.65625 C 123.24907,862.47701 123.1753,862.30585 123.04565,862.18209 C 122.91599,862.05833 122.74159,861.9926 122.5625,862 L 122.5625,862 z M 85.4375,904.3125 C 85.113338,904.37646 84.886364,904.67019 84.90625,905 C 86.322237,925.28246 102.46613,941.48957 122.5625,942.90625 C 122.74159,942.91365 122.91599,942.84792 123.04565,942.72416 C 123.1753,942.6004 123.24907,942.42924 123.25,942.25 L 123.25,921.78125 C 123.25163,921.45311 123.01203,921.17358 122.6875,921.125 C 114.36383,919.91931 107.73434,913.27993 106.53125,904.875 C 106.48267,904.55047 106.20314,904.31087 105.875,904.3125 L 85.5625,904.3125 C 85.520927,904.30855 85.479073,904.30855 85.4375,904.3125 L 85.4375,904.3125 z M 144.09375,904.40625 C 143.81385,904.45948 143.59967,904.68626 143.5625,904.96875 C 142.36379,913.35003 135.75342,920.00866 127.40625,921.21875 C 127.08172,921.26733 126.84212,921.54686 126.84375,921.875 L 126.84375,942.34375 C 126.84468,942.52299 126.91845,942.69415 127.0481,942.81791 C 127.17776,942.94167 127.35216,943.0074 127.53125,943 C 147.69179,941.57451 163.78023,925.31165 165.1875,905.09375 C 165.1949,904.91466 165.12917,904.74026 165.00541,904.6106 C 164.88165,904.48095 164.71049,904.40718 164.53125,904.40625 L 144.21875,904.40625 C 144.17718,904.4023 144.13532,904.4023 144.09375,904.40625 L 144.09375,904.40625 z " />
      <g
         transform="translate(-7.6544815e-2,-2.5121936e-2)"
         id="g3565">
        <path
           sodipodi:open="true"
           sodipodi:end="7.8539816"
           sodipodi:start="1.5790018"
           transform="matrix(0.2744639,0,0,0.2762124,80.526502,848.76039)"
           d="M -111.40699,250.64799 A 56.498951,56.498951 0 1 1 -110.9434,250.64989"
           sodipodi:ry="56.498951"
           sodipodi:rx="56.498951"
           sodipodi:cy="194.15094"
           sodipodi:cx="-110.9434"
           id="path3212"
           style="fill:#2d2d2d;fill-opacity:1;stroke:none;stroke-width:1.44736862;stroke-linecap:butt;stroke-linejoin:round;stroke-miterlimit:4;stroke-dasharray:none;stroke-opacity:1"
           sodipodi:type="arc" />
        <path
           sodipodi:type="arc"
           style="fill:#141414;fill-opacity:1;stroke:none;stroke-width:1.44736862;stroke-linecap:butt;stroke-linejoin:round;stroke-miterlimit:4;stroke-dasharray:none;stroke-opacity:1"
           id="path20214"
           sodipodi:cx="-110.9434"
           sodipodi:cy="194.15094"
           sodipodi:rx="56.498951"
           sodipodi:ry="56.498951"
           d="M -111.40699,250.64799 A 56.498951,56.498951 0 1 1 -110.9434,250.64989"
           transform="matrix(0.2527149,0,0,0.2543248,78.113597,853.00988)"
           sodipodi:start="1.5790018"
           sodipodi:end="7.8539816"
           sodipodi:open="true" />
        <path
           sodipodi:open="true"
           sodipodi:end="7.8539816"
           sodipodi:start="1.5790018"
           transform="matrix(0.216359,0,0,0.2397331,74.080149,855.84287)"
           d="M -111.40699,250.64799 A 56.498951,56.498951 0 1 1 -110.9434,250.64989"
           sodipodi:ry="56.498951"
           sodipodi:rx="56.498951"
           sodipodi:cy="194.15094"
           sodipodi:cx="-110.9434"
           id="path23123"
           style="fill:url(#linearGradient3533);fill-opacity:1;stroke:none;stroke-width:1.44736862;stroke-linecap:butt;stroke-linejoin:round;stroke-miterlimit:4;stroke-dasharray:none;stroke-opacity:1"
           sodipodi:type="arc" />
        <path
           transform="scale(0.9968298,1.0031803)"
           style="font-size:3.74570751px;font-style:normal;font-variant:normal;font-weight:bold;font-stretch:normal;text-align:start;line-height:125%;writing-mode:lr-tb;text-anchor:start;fill:#eeeeec;fill-opacity:1;stroke:none;stroke-width:1px;stroke-linecap:butt;stroke-linejoin:miter;stroke-opacity:1;font-family:Bitstream Vera Sans"
           d="M 40.19576,900.66191 C 40.020178,900.74727 39.837891,900.81128 39.648902,900.85396 C 39.459907,900.89663 39.264818,900.91797 39.063635,900.91797 C 38.608832,900.91797 38.248528,900.79116 37.98272,900.53755 C 37.716911,900.28271 37.584007,899.93765 37.584007,899.50235 C 37.584007,899.06219 37.71935,898.7159 37.990036,898.46351 C 38.260721,898.21111 38.63139,898.08491 39.102043,898.08491 C 39.283718,898.08491 39.457468,898.10198 39.623296,898.13612 C 39.790339,898.17027 39.947629,898.22087 40.095167,898.28793 L 40.095167,898.85307 C 39.942752,898.76651 39.790948,898.70188 39.639757,898.6592 C 39.48978,898.61653 39.339196,898.59519 39.188004,898.59519 C 38.907562,898.59519 38.691136,898.67384 38.538724,898.83113 C 38.387529,898.9872 38.311932,899.21094 38.311933,899.50235 C 38.311932,899.79133 38.38509,900.01446 38.531408,900.17175 C 38.677723,900.32904 38.885615,900.40769 39.155083,900.40769 C 39.228239,900.40769 39.295911,900.40342 39.358097,900.39489 C 39.421499,900.38513 39.478197,900.3705 39.52819,900.35099 L 39.52819,899.82059 L 39.098385,899.82059 L 39.098385,899.34872 L 40.19576,899.34872 L 40.19576,900.66191 M 42.470985,900.36745 L 41.369952,900.36745 L 41.196201,900.86493 L 40.488394,900.86493 L 41.499808,898.13429 L 42.3393,898.13429 L 43.350714,900.86493 L 42.642907,900.86493 L 42.470985,900.36745 M 41.545532,899.86083 L 42.293576,899.86083 L 41.920468,898.77443 L 41.545532,899.86083 M 44.711459,899.34506 C 44.858994,899.34507 44.964464,899.31763 45.027869,899.26276 C 45.092491,899.20789 45.124802,899.11767 45.124804,898.99208 C 45.124802,898.86771 45.092491,898.7787 45.027869,898.72505 C 44.964464,898.6714 44.858994,898.64458 44.711459,898.64457 L 44.415168,898.64457 L 44.415168,899.34506 L 44.711459,899.34506 M 44.415168,899.83157 L 44.415168,900.86493 L 43.711019,900.86493 L 43.711019,898.13429 L 44.786447,898.13429 C 45.14614,898.1343 45.40951,898.19465 45.576557,898.31536 C 45.744819,898.43607 45.828951,898.6269 45.828953,898.88782 C 45.828951,899.06828 45.785056,899.21643 45.697268,899.33226 C 45.610695,899.4481 45.47962,899.53345 45.304042,899.58832 C 45.400365,899.61026 45.486326,899.66026 45.561925,899.73829 C 45.638739,899.81511 45.716165,899.93216 45.794203,900.08945 L 46.176455,900.86493 L 45.426582,900.86493 L 45.093712,900.18639 C 45.026648,900.04982 44.958367,899.95655 44.888868,899.90655 C 44.820586,899.85656 44.729138,899.83157 44.614524,899.83157 L 44.415168,899.83157 M 46.593458,898.13429 L 48.493746,898.13429 L 48.493746,898.66652 L 47.297607,898.66652 L 47.297607,899.17497 L 48.422417,899.17497 L 48.422417,899.7072 L 47.297607,899.7072 L 47.297607,900.86493 L 46.593458,900.86493 L 46.593458,898.13429 M 49.154,898.13429 L 49.858149,898.13429 L 49.858149,899.77121 C 49.858148,899.99678 49.894727,900.15834 49.967887,900.25589 C 50.042263,900.35221 50.162974,900.40037 50.330021,900.40037 C 50.498283,900.40037 50.618994,900.35221 50.692154,900.25589 C 50.76653,900.15834 50.803719,899.99678 50.803721,899.77121 L 50.803721,898.13429 L 51.50787,898.13429 L 51.50787,899.77121 C 51.507867,900.15773 51.410933,900.44549 51.217066,900.63448 C 51.023194,900.82347 50.727512,900.91797 50.330021,900.91797 C 49.933745,900.91797 49.638673,900.82347 49.444805,900.63448 C 49.250934,900.44549 49.154,900.15773 49.154,899.77121 L 49.154,898.13429 M 52.197388,898.13429 L 52.98384,898.13429 L 53.976964,900.00715 L 53.976964,898.13429 L 54.644534,898.13429 L 54.644534,900.86493 L 53.858082,900.86493 L 52.864957,898.99208 L 52.864957,900.86493 L 52.197388,900.86493 L 52.197388,898.13429 M 55.328564,898.13429 L 56.032714,898.13429 L 56.032714,899.13108 L 57.047786,898.13429 L 57.86533,898.13429 L 56.550309,899.42737 L 58.000673,900.86493 L 57.119115,900.86493 L 56.032714,899.7895 L 56.032714,900.86493 L 55.328564,900.86493 L 55.328564,898.13429 M 58.232951,898.13429 L 60.133239,898.13429 L 60.133239,898.66652 L 58.9371,898.66652 L 58.9371,899.17497 L 60.06191,899.17497 L 60.06191,899.7072 L 58.9371,899.7072 L 58.9371,900.3327 L 60.173476,900.3327 L 60.173476,900.86493 L 58.232951,900.86493 L 58.232951,898.13429 M 60.793494,898.13429 L 61.497643,898.13429 L 61.497643,900.3327 L 62.734019,900.3327 L 62.734019,900.86493 L 60.793494,900.86493 L 60.793494,898.13429"
           id="text2514" />
      </g>
    </g>
    <g
       id="red">
      <path
         id="path5650"
         d="M 52.515625,862.53404 L 52.515625,882.87779 C 61.128655,884.15353 67.971015,891.01516 69.234375,899.65904 L 89.421875,899.65904 C 88.011535,879.83975 72.272635,863.96207 52.515625,862.53404 z "
         style="fill:#a40000;fill-opacity:1;stroke:none;stroke-width:4;stroke-linecap:butt;stroke-linejoin:round;stroke-miterlimit:4;stroke-opacity:1" />
      <path
         id="path5658"
         d="M 53.765625,864.01841 L 53.765625,881.86216 C 62.043045,883.54332 68.568575,890.08944 70.234375,898.39341 L 87.921875,898.39341 C 85.984315,880.31337 71.775635,865.97973 53.765625,864.01841 z "
         style="fill:url(#linearGradient5674);fill-opacity:1.0;stroke:none;stroke-width:4;stroke-linecap:butt;stroke-linejoin:round;stroke-miterlimit:4;stroke-opacity:1" />
    </g>
    <g
       id="green"
       inkscape:label="#green">
      <path
         id="path5648"
         d="M 47.484375,862.62779 C 27.791015,864.0471 11.997172,879.90067 10.578125,899.78404 L 30.765625,899.78404 C 32.033485,891.11644 38.894675,884.24294 47.484375,882.97154 L 47.484375,862.62779 z "
         style="fill:#4e9a06;fill-opacity:1;stroke:none;stroke-width:4;stroke-linecap:butt;stroke-linejoin:round;stroke-miterlimit:4;stroke-opacity:1" />
      <path
         id="path5656"
         d="M 46.234375,864.11216 C 28.283255,866.06733 14.025712,880.38377 12.078125,898.51841 L 29.765625,898.51841 C 31.434825,890.19127 37.971885,883.63493 46.234375,881.95591 L 46.234375,864.11216 z "
         style="fill:url(#linearGradient5666);fill-opacity:1.0;stroke:none;stroke-width:4;stroke-linecap:butt;stroke-linejoin:round;stroke-miterlimit:4;stroke-opacity:1" />
    </g>
    <g
       inkscape:label="#green-on"
       id="green-on">
      <path
         style="fill:#8ae234;fill-opacity:1;stroke:none;stroke-width:4;stroke-linecap:butt;stroke-linejoin:round;stroke-miterlimit:4;stroke-opacity:1"
         d="M 47.484375,862.62779 C 27.791015,864.0471 11.997172,879.90067 10.578125,899.78404 L 30.765625,899.78404 C 32.033485,891.11644 38.894675,884.24294 47.484375,882.97154 L 47.484375,862.62779 z "
         id="path2414" />
      <path
         style="fill:url(#linearGradient5666);fill-opacity:1.0;stroke:none;stroke-width:4;stroke-linecap:butt;stroke-linejoin:round;stroke-miterlimit:4;stroke-opacity:1"
         d="M 46.234375,864.11216 C 28.283255,866.06733 14.025712,880.38377 12.078125,898.51841 L 29.765625,898.51841 C 31.434825,890.19127 37.971885,883.63493 46.234375,881.95591 L 46.234375,864.11216 z "
         id="path2416" />
    </g>
    <g
       id="yellow">
      <path
         id="path5646"
         d="M 10.578125,904.94029 C 11.997172,924.82362 27.791015,940.67723 47.484375,942.09654 L 47.484375,921.75279 C 38.894675,920.48139 32.033485,913.60788 30.765625,904.94029 L 10.578125,904.94029 z "
         style="fill:#c4a000;fill-opacity:1;stroke:none;stroke-width:4;stroke-linecap:butt;stroke-linejoin:round;stroke-miterlimit:4;stroke-opacity:1" />
      <path
         id="path5654"
         d="M 12.078125,906.17466 C 14.025712,924.3093 28.283255,938.62576 46.234375,940.58091 L 46.234375,922.73716 C 37.971875,921.05815 31.434825,914.50179 29.765625,906.17466 L 12.078125,906.17466 z "
         style="fill:url(#linearGradient5682);fill-opacity:1.0;stroke:none;stroke-width:4;stroke-linecap:butt;stroke-linejoin:round;stroke-miterlimit:4;stroke-opacity:1" />
    </g>
    <g
       id="blue">
      <path
         id="path5612"
         d="M 69.234375,905.03404 C 67.971015,913.67803 61.128775,920.57061 52.515625,921.84654 L 52.515625,942.19029 C 72.272585,940.76217 88.011535,924.85339 89.421875,905.03404 L 69.234375,905.03404 z "
         style="fill:#204a87;fill-opacity:1;stroke:none;stroke-width:4;stroke-linecap:butt;stroke-linejoin:round;stroke-miterlimit:4;stroke-opacity:1" />
      <path
         id="path5618"
         d="M 70.234375,906.26841 C 68.568725,914.57467 62.046035,921.14743 53.765625,922.83091 L 53.765625,940.70591 C 71.779075,938.74737 85.983905,924.35331 87.921875,906.26841 L 70.234375,906.26841 z "
         style="fill:url(#linearGradient5690);fill-opacity:1.0;stroke:none;stroke-width:4;stroke-linecap:butt;stroke-linejoin:round;stroke-miterlimit:4;stroke-opacity:1" />
    </g>
    <g
       id="red-on">
      <path
         style="fill:#ef2929;fill-opacity:1;stroke:none;stroke-width:4;stroke-linecap:butt;stroke-linejoin:round;stroke-miterlimit:4;stroke-opacity:1"
         d="M 52.515625,862.53404 L 52.515625,882.87779 C 61.128655,884.15353 67.971015,891.01516 69.234375,899.65904 L 89.421875,899.65904 C 88.011535,879.83975 72.272635,863.96207 52.515625,862.53404 z "
         id="path2408" />
      <path
         style="fill:url(#linearGradient5674);fill-opacity:1.0;stroke:none;stroke-width:4;stroke-linecap:butt;stroke-linejoin:round;stroke-miterlimit:4;stroke-opacity:1"
         d="M 53.765625,864.01841 L 53.765625,881.86216 C 62.043045,883.54332 68.568575,890.08944 70.234375,898.39341 L 87.921875,898.39341 C 85.984315,880.31337 71.775635,865.97973 53.765625,864.01841 z "
         id="path2410" />
    </g>
    <g
       id="yellow-on">
      <path
         style="fill:#fce94f;fill-opacity:1;stroke:none;stroke-width:4;stroke-linecap:butt;stroke-linejoin:round;stroke-miterlimit:4;stroke-opacity:1"
         d="M 10.578125,904.94029 C 11.997172,924.82362 27.791015,940.67723 47.484375,942.09654 L 47.484375,921.75279 C 38.894675,920.48139 32.033485,913.60788 30.765625,904.94029 L 10.578125,904.94029 z "
         id="path2420" />
      <path
         style="fill:url(#linearGradient5682);fill-opacity:1.0;stroke:none;stroke-width:4;stroke-linecap:butt;stroke-linejoin:round;stroke-miterlimit:4;stroke-opacity:1"
         d="M 12.078125,906.17466 C 14.025712,924.3093 28.283255,938.62576 46.234375,940.58091 L 46.234375,922.73716 C 37.971875,921.05815 31.434825,914.50179 29.765625,906.17466 L 12.078125,906.17466 z "
         id="path2422" />
    </g>
    <g
       id="blue-on">
      <path
         style="fill:#729fcf;fill-opacity:1;stroke:none;stroke-width:4;stroke-linecap:butt;stroke-linejoin:round;stroke-miterlimit:4;stroke-opacity:1"
         d="M 69.234375,905.03404 C 67.971015,913.67803 61.128775,920.57061 52.515625,921.84654 L 52.515625,942.19029 C 72.272585,940.76217 88.011535,924.85339 89.421875,905.03404 L 69.234375,905.03404 z "
         id="path2426" />
      <path
         style="fill:url(#linearGradient5690);fill-opacity:1.0;stroke:none;stroke-width:4;stroke-linecap:butt;stroke-linejoin:round;stroke-miterlimit:4;stroke-opacity:1"
         d="M 70.234375,906.26841 C 68.568725,914.57467 62.046035,921.14743 53.765625,922.83091 L 53.765625,940.70591 C 71.779075,938.74737 85.983905,924.35331 87.921875,906.26841 L 70.234375,906.26841 z "
         id="path2428" />
    </g>
  </g>
</svg>
